setup_vision = yes
# No previous file for H09
government = monarchy
add_government_reform = autocracy_reform
government_rank = 1
primary_culture = peitar
religion = eordellon
technology_group = tech_eordand
capital = 2014
historical_friend = H08 #Pelomar
historical_friend = H20 #Trimgarb
historical_friend = H06 #Sidpar
historical_friend = H19 #Strutmar

1000.1.1 = { set_estate_privilege = estate_mages_organization_guilds }

1440.3.5 = {
	monarch = {
		name = "Sharindel II"
		dynasty = "Lightkeeper"
		birth_date = 1409.1.12
		female = yes
		adm = 4
		dip = 3
		mil = 4
	}
	add_ruler_personality = midas_touched_personality
	heir = {
		name = "Celadora"
		monarch_name = "Celadora I"
		dynasty = "Lightkeeper"
		birth_date = 1432.2.11
		death_date = 1481.3.2
		female = yes
		claim = 95
		adm = 2
		dip = 4
		mil = 4
	}
	queen = {
		country_of_origin = H04
		name = "Elriandor"
		dynasty = "Goldtree"
		birth_date = 1419.5.20
		death_date = 1475.4.10
		adm = 1
		dip = 3
		mil = 3
	}
}
