# FROM = sender, ROOT = receiver
# Anbennar-specific at bottom

insult_default = {
	trigger = {
		always = yes
	}
}

insult_default2 = {
	trigger = {
		FROM = {
			religion_group = cannorian
		}
	}
}

insult_default3 = {
	trigger = {
		always = yes
	}
}

insult_default4 = {
	trigger = {
		always = yes
	}
}

insult_default5 = {
	trigger = {
		always = yes
	}
}

insult_default6 = {
	trigger = {
		always = yes
	}
}

insult_default7 = {
	trigger = {
		always = yes
	}
}

insult_default8 = {
	trigger = {
		always = yes
	}
}

insult_default9 = {
	trigger = {
		NOT = { primary_culture = FROM }
	}
}

insult_default10 = {
	trigger = {
		always = yes
	}
}

insult_default11 = {
	trigger = {
		always = yes
	}
}

insult_default12 = {
	trigger = {
		FROM = { NOT = { culture_group_is_ruinborn = yes } }
	}
}

insult_default12_ynn = {
	trigger = {
		FROM = { culture_group = ynnic_ruinborn_elf }
	}
}


insult_default13 = {
	trigger = {
		always = yes
	}
}

insult_default14 = {
	trigger = {
		NOT = { has_subterranean_race = YES }
	}
}

insult_default15 = {
	trigger = {
		FROM = {
			NOT = { has_country_modifier = monstrous_nation }
		}
	}
}

insult_no_army = {
	trigger = {
		NOT = { army_size = 1 }
	}
}

insult_bookkeeping = {
	trigger = {
		FROM = {
			trade_income_percentage = 0.33
			NOT = { has_country_modifier = monstrous_nation }
		}
		NOT  = { trade_income_percentage = 0.33 }
	}
}


insult_heir_hunter = {
	trigger = {
		has_regency = no
		has_heir = yes
		OR = {
			heir_adm = 4
			heir_mil = 4
			heir_dip = 4
		}
	}
}

insult_monarchy = {
	trigger = {
		government = monarchy
		has_regency = no
		FROM = {
			government = monarchy
		}
	}
}

insult_european_indian = {
	trigger = {
		capital_scope = { superregion = india_superregion }
		FROM = { capital_scope = { continent = europe } }
	}
}


insult_explorer_vs_africa_or_india = {
	trigger = {
		FROM = {
			capital_scope = { continent = europe }
		}
		NOT = { religion_group = FROM }
		OR = {
			capital_scope = { superregion = india_superregion }
			capital_scope = { continent = africa }
		}
	}
}



insult_guybrush = {
	trigger = {
		FROM = { has_ruler = "Guybrush" }
	}
}

insult_against_guybrush = {
	trigger = {
		has_ruler = "Guybrush"
	}
}

insult_low_dipadm = {
	trigger = {
		has_regency = no
		OR = {
			NOT = { ADM = 2 }
			NOT = { DIP = 2 }
		}
	}
}

insult_pvp = {
	trigger = {
		ai = no
		FROM = { ai = no }
	}
}

insult_pvp2 = {
	trigger = {
		ai = no
		FROM = { ai = no }
	}
}


insult_fort = {
	trigger = {
		any_owned_province = {
			fort_level = 3
		}
		FROM = {
			mil_tech = 7
		}
	}
}

insult_revolutionary = {
	trigger = {
		has_regency = no
		FROM = {
			OR = {
				has_reform = revolutionary_empire_reform
				is_revolutionary_republic_trigger = yes
			}
		}
	}
}

insult_monarchy_rank = {
	trigger = {
		FROM = {
			government = monarchy
			government_rank = 2
		}
		government_rank = 1
		has_regency = no
	}
}

insult_low_adm = {
	trigger = {
		NOT = {
			ADM = 2
		}
	}
}

insult_against_craven = {
	trigger = {
		ruler_has_personality = craven_personality
	}
}

insult_against_sinner = {
	trigger = {
		ruler_has_personality = sinner_personality
		has_consort = yes
	}
}

insult_against_hre = {
	trigger = {
		is_emperor = yes
	}
}


insult_loans = {
	trigger = {
		OR = {
			num_of_loans = 5
			is_bankrupt = yes
		}
	}
}

insult_rebels = {
	trigger = {
		num_of_rebel_armies = 1
	}
}

insult_low_mil_tech = {
	trigger = {
		NOT = { mil_tech = FROM }
	}
}


insult_republic_to_monarchy = {
	trigger = {
		government = monarchy
		FROM = {
			has_reform = peasants_republic
		}
	}
}

insult_pirates_1 = {
	trigger = {
		FROM = {
			has_reform = pirate_republic_reform
		}
	}
}

insult_pirates_2 = {
	trigger = {
		FROM = {
			has_reform = pirate_republic_reform
		}
	}
}

insult_pirates_3 = {
	trigger = {
		FROM = {
			has_reform = pirate_republic_reform
		}
	}
}

insult_pirates_4 = {
	trigger = {
		FROM = {
			has_reform = pirate_republic_reform
		}
		ruler_has_personality = drunkard_personality
	}
}

insult_pirates_5 = {
	trigger = {
		FROM = {
			has_reform = pirate_republic_reform
		}
	}
}

insult_jungle = {
	trigger = {
		FROM = {
			NOT = { num_of_cities = ROOT }
			NOT = {
				capital_scope = {
					OR = {
						has_terrain = jungle
						has_terrain = marsh
					}
				}
			}
		}
		capital_scope = {
			OR = {
				has_terrain = jungle
				has_terrain = marsh
			}
		}
	}
}

# Anbennar-specific

insult_marrhold_adventurer = {
	trigger = {
		is_adventurer = yes
		capital_scope = { superregion = escann } 
		FROM = { tag = B36 }
	}
}

insult_corin_waifu = {
	trigger = {
		FROM = { religion = regent_court }
		religion = corinite
	}
}		

insult_tall_small_1 = {
	trigger = {
		FROM = {
			OR = {
				culture_group = ogre
				culture_group = giantkind
			}
		}
		OR = {
			culture_group = halfling
			culture_group = kobold
			culture_group = goblin
			culture_group = gnomish
			culture_group = dwarven
		}
	}
}

insult_tall_small_1 = {
	trigger = {
		FROM = {
			OR = {
				culture_group = ogre
				culture_group = giantkind
			}
			NOT = { primary_culture = horned_ogre }
		}
		OR = {
			culture_group = halfling
			culture_group = kobold
			culture_group = goblin
			culture_group = gnomish
			culture_group = dwarven
		}
	}
}

insult_tall_small_2 = {
	trigger = {
		FROM = {
			OR = {
				culture_group = ogre
				culture_group = giantkind
			}
			NOT = { primary_culture = horned_ogre }
		}
		OR = {
			culture_group = halfling
			culture_group = kobold
			culture_group = goblin
			culture_group = gnomish
			culture_group = dwarven
		}
	}
}

insult_tall_small_3 = {
	trigger = {
		FROM = {
			OR = {
				culture_group = ogre
				culture_group = giantkind
			}
			NOT = { primary_culture = horned_ogre }
		}
		OR = {
			culture_group = halfling
			culture_group = kobold
			culture_group = goblin
			culture_group = gnomish
			culture_group = dwarven
		}
	}
}

insult_garden_gnomes = {
	trigger = {
		culture_group = gnomish
		FROM = { NOT = { culture_group = gnomish } }
	}
}

insult_silmuna_1 = {
	trigger = {
		dynasty = "Silmuna"
	}
}

insult_from_pelomar = {
	trigger = {
		FROM = { tag = H08 }
		capital_scope = { superregion = eordand_superregion }
	}
}

insult_from_winter_court = {
	trigger = {
		FROM = { religion = winter_court }
		OR = {
			religion = eordellon
			religion = spring_court
			religion = autumn_court
			religion = summer_court
		}
	}
}

insult_ogres = {
	trigger = { 
		culture_group = ogre
	}
}

insult_from_undead_army = {
	trigger = {
		FROM = { has_country_modifier = undead_military }
		NOT = { has_country_modifier = undead_military }
	}
}

insult_from_xhazobkult = {
	trigger = {
		FROM = { religion = xhazobkult }
	}
}

insult_from_harpy_1 = {
	trigger = {
		FROM = { religion = the_hunt }
		is_female = no
	}
}

insult_from_harpy_2 = {
	trigger = {
		FROM = { religion = the_hunt }
		NOT = { has_country_modifier = harpy_administration }
	}
}

insult_lencori_1 = {
	trigger = {
		culture_group = lencori
		wine = 1
	}
}

insult_from_dumb_ogres_1 = {
	trigger = {
		FROM = {
			religion = feast_of_the_gods
		}
	}
}

insult_from_dumb_ogres_2 = {
	trigger = {
		FROM = {
			culture_group = ogre
			NOT = { primary_culture = horned_ogre }
		}
	}
}

insult_from_mossmouth_1 = {
	trigger = {
		FROM = {
			primary_culture = mossmouth_ogre
		}
	}
}

insult_from_mossmouth_2 = {
	trigger = {
		FROM = {
			primary_culture = mossmouth_ogre
		}
	}
}

insult_from_gnomes_1 = {
	trigger = {
		FROM = {
			culture_group = gnomish
		}
		NOT = { culture_group = gnomish }
	}
}

insult_from_gnomes_2 = {
	trigger = {
		FROM = {
			culture_group = gnomish
		}
		NOT = { culture_group = gnomish }
	}
}


insult_closed_dwarves = {
	trigger = {
		culture_group = dwarven
		OR = {
			mercantilism = 25
			FROM = { tag = B36 }
		}
	}
}

insult_against_colonizer = {
	trigger = {
		FROM = {
			culture_group_is_ruinborn = yes
		}
		NOT = { culture_group_is_ruinborn = yes }
		any_owned_province = {
			continent = north_america
			continent = south_america
		}
	}
}

insult_against_anbennar = {
	trigger = {
		is_emperor = yes
	}
}

insult_against_silmuna = {
	trigger = {
		FROM = { government = monarchy }
		dynasty = "Silmuna"
	}
}

insult_anbenncost = {
	trigger = {
		tag = A38
	}
}

insult_dwarf_1 = {
	trigger = {
		culture_group = dwarven
	}
}

insult_from_dwarf = {
	trigger = {
		FROM = { culture_group = dwarven }
		NOT = { culture_group = dwarven }
	}
}

insult_rianvisa_end = {
	trigger = {
		has_country_flag = aelnar_civil_war_end
	}
}

insult_ynn = {
	trigger = {
		FROM = { religion = ynn_river_worship }
	}
}

insult_cannorian_rahen = {
	trigger = {
		capital_scope = { superregion = rahen_superregion }
		FROM = { capital_scope = { superregion = western_cannor_superregion } }
	}
}

insult_centaur_civilization = {
	trigger = {
		FROM = { culture_group = centaur }
		NOT = { has_country_modifier = monstrous_nation }
	}
}

insult_ruinborn_light = { 
	trigger = { 
		FROM = { religion = bulwari_sun_cult } 
		has_country_modifier = ruinborn_administration
	}
}

insult_wex_damerian = {
	trigger = { 
		tag = A30 
		FROM = {
			OR = {
				dynasty = "Silmuna"
				dynasty = "Silistra"
			}
		}
	}
}

insult_slavers = {
	trigger = {
		OR = {
			has_country_modifier = orcish_slaves_in_colonies
			slaves = 1
		}
		FROM = {
			culture_group = orcish
			NOT = { has_country_modifier = monstrous_nation }
		}
	}
}

insult_damerian_wex = { 
	trigger = {
		OR = { dynasty = "Silmuna" dynasty = "Silistra" }
		FROM = { has_country_flag = lilac_wars_rose_party }
	}
}

insult_gerudian = {
	trigger = {
		culture_group = gerudian
	}
}

insult_marrhold_1 = {
	trigger = {
		tag = B36
	}
}

insult_marrhold_2 = {
	trigger = {
		tag = B36
	}
}


insult_wood_elves_green_orcs = {
	trigger = {
		primary_culture = wood_elf
		FROM = { OR = { primary_culture = green_orc primary_culture = emerald_orc } }
	}
}

insult_wood_elves = {
	trigger = {
		primary_culture = wood_elf
		NOT = { FROM = { primary_culture = wood_elf } }
	}
}

insult_reavers = {
	trigger = {
		OR = {
			culture_group = gerudian
		}
		tag = A02 #Deranne
		tag = A05 #Reveria
		tag = A11 #Pearlsedge
	}
}

insult_heir_mage = {
	trigger = {
		has_ruler_modifier = heir_mage_personality_mod
	}
}

insult_esmari_1 = {
	trigger = {
		primary_culture = esmari
		FROM = { capital_scope = { superregion = western_cannor_superregion } }
	}
}

insult_esmari_2 = {
	trigger = {
		primary_culture = esmari
		FROM = { culture = esmari }
	}
}

insult_elves_industrialists = {
	trigger = {
		culture = wood_elf
		FROM = {
			OR = {
				culture_group = dwarven
				culture_group = goblin
				has_institution = industrialization
			}
		}
	}
}

insult_elves_1 = {
	trigger = {
		culture_group = elven
		FROM = { has_country_modifier = monstrous_nation }
	}
}

insult_elves_2 = {
	trigger = {
		culture_group = elven
	}
}

insult_great_power = {
	trigger = {
		is_great_power = yes
	}
}

insult_from_gnolls_1 = {
	trigger = {
		FROM = { has_country_modifier = gnollish_administration }
	}
}

insult_from_monstrous = {
	trigger = {
		NOT = { has_country_modifier = monstrous_nation }
		FROM = { has_country_modifier = monstrous_nation }
	}
}

insult_centaurs = {
	trigger = {
		has_country_modifier = centaur_administration
		FROM = { NOT = { has_country_modifier = monstrous_nation } }
	}
}

insult_humans_orcs_1 = {
	trigger = {
		has_country_modifier = human_administration
		FROM = { culture_group = orcish }
	}
}

insult_humans_orcs_2 = {
	trigger = {
		has_country_modifier = human_administration
		FROM = { culture_group = orcish }
	}
}

insult_from_kobolds_1 = {
	trigger = {
		FROM = { religion = dragon_cult }
		government = monarchy
	}
}

insult_from_kobolds_2 = {
	trigger = {
		FROM = { religion = dragon_cult }
		treasury = 500
	}
}

insult_blademarches = {
	trigger = {
		tag = B33 # Blademarches
	}
}

insult_raj = {
	trigger = {
		FROM = { tag = R38 }
		owns = 4411
	}
}


insult_gnolls_1 = {
	trigger = {
		culture_group = gnollish
	}
}

insult_gnolls_2 = {
	trigger = {
		NOT = { is_female = yes }
		culture_group = gnollish
	}
}


insult_from_longlived_1 = {
	trigger = {
		FROM = { ruler_has_personality = immortal_personality }
		NOT = { ruler_has_personality = immortal_personality }
	}
}


insult_celliande_toarnen = {
	trigger = {
		tag = A56
		FROM = { tag = A57 }
	}
}

insult_elves_ravelian = {
	trigger = {
		culture_group = elven
		FROM = { religion = ravelian }
	}
}

insult_sun_elves_nsc = {
	trigger = {
		FROM = { religion = bulwari_sun_cult }
		primary_culture = sun_elf
	}
}

insult_hehodovar = {
	trigger = {
		tag = I15
	}
}