adenica_convert_action = {
	category = influence
	
	is_visible = {
		tag = B58
		mission_completed = adenica_dutiful_servent
		religion = regent_court
		FROM = {
			capital_scope = {
				continent = europe
			}
			OR = {
				religion = corinite
				religion = ravelian
			}
		}
    }
	
	is_allowed = {
		hidden_trigger = {
			tag = B58
			mission_completed = adenica_dutiful_servent
			religion = regent_court
			FROM = {
				capital_scope = {
					continent = europe
				}
				OR = {
					religion = corinite
					religion = ravelian
				}
			}
		}
		FROM = { NOT = { TAG = Z97 } }
		ROOT = {
			prestige = 0
		}
		ROOT = {
			reverse_has_opinion = {
				who = FROM
				value = 50
			}
		}
	}

    on_accept = {
		FROM = {
			save_event_target_as = adenica_converting_target
		}
		ROOT = {
			country_event = {
				id = flavor_adenica.90
			}
		}
	}
	ai_will_do = {
		always = no
	}
}