#161 - Tirgoviste | Hillwater

owner = A01
controller = A01
add_core = A01
add_core = A69
culture = redfoot_halfling
religion = regent_court

hre = no

base_tax = 3
base_production = 4
base_manpower = 2

trade_goods = copper
capital = ""

is_city = yes

latent_trade_goods = {
	coal
}








