#387 - Mocha

owner = U07
controller = U07
add_core = U07
add_core = U08
culture = far_akani
religion = mother_akan

hre = no

base_tax = 4
base_production = 4
base_manpower = 4

trade_goods = grain

capital = ""

is_city = yes







