#390 - Sana'a

owner = U07
controller = U07
add_core = U07
add_core = U08
culture = west_sandfang_gnoll
religion = xhazobkult

hre = no

base_tax = 3
base_production = 3
base_manpower = 3

trade_goods = wool

capital = ""

is_city = yes







