#396 - Bahrain

owner = U07
controller = U07
add_core = U07
add_core = F57
culture = west_sandfang_gnoll
religion = xhazobkult

hre = no

base_tax = 2
base_production = 3
base_manpower = 4

trade_goods = incense

capital = ""

is_city = yes








