#402 - Qishn

owner = U08
controller = U08
add_core = U08
culture = far_akani
religion = mother_akan

hre = no

base_tax = 6
base_production = 4
base_manpower = 3

trade_goods = cloth
center_of_trade = 2

capital = ""

is_city = yes








