#469 - Ryn

owner = U01
controller = U01
add_core = U01
add_core = U03
culture = kheteratan
religion = khetist

hre = no

base_tax = 6
base_production = 4
base_manpower = 4

trade_goods = cotton

capital = ""

is_city = yes










