#473 - Samara

owner = U02
controller = U02
add_core = U02
add_core = U01
culture = kheteratan
religion = khetist

hre = no

base_tax = 5
base_production = 4
base_manpower = 6

trade_goods = incense
center_of_trade = 1

capital = ""

is_city = yes










