#507 - Stargozdu (oldwood)

owner = U11
controller = U11
add_core = U11
add_core = U16
culture = exodus_goblin
religion = goblinic_shamanism


base_tax = 2
base_production = 2
base_manpower = 2

trade_goods = naval_supplies

capital = ""











add_permanent_province_modifier = {
	name = human_minority_oppressed_small
	duration = -1
}
