#509 - Mestikisorotin (moontent)

owner = U12
controller = U12
add_core = U12
culture = forest_goblin
religion = goblinic_shamanism


base_tax = 3
base_production = 2
base_manpower = 1

trade_goods = naval_supplies

capital = ""









