# No previous file for Pattani
owner = F37
controller = F37
add_core = F37
culture = sun_elf
religion = bulwari_sun_cult

hre = no

base_tax = 2
base_production = 2
base_manpower = 2

trade_goods = grain

capital = ""

is_city = yes









