# No previous file for Palawan
owner = F26
controller = F26
add_core = F26
culture = gelkar
religion = bulwari_sun_cult


base_tax = 2
base_production = 2
base_manpower = 2

trade_goods = iron

capital = ""

is_city = yes









