#914 - Winnebago

owner = A25
controller = A25
add_core = A25
culture = crownsman
religion = regent_court

hre = yes

base_tax = 4
base_production = 4
base_manpower = 2

trade_goods = grain

capital = ""

is_city = yes







