kheterata_western_expansion = {
	slot = 2
	generic = no
	ai = yes
	potential = {
		tag = U01
	}
	has_country_shield = yes

	kheterata_supress_nirat_rebellion = {
		icon = mission_bedouins
		required_missions = { }
		provinces_to_highlight = {
			OR = {	
				province_id = 472
				province_id = 473
				province_id = 491
			}
			NOT = {
				country_or_non_sovereign_subject_holds = ROOT
			}
		}
		
		trigger = {
			472 = {
				country_or_non_sovereign_subject_holds = ROOT
			}
			473 = {
				country_or_non_sovereign_subject_holds = ROOT
			}
			491 = {
				country_or_non_sovereign_subject_holds = ROOT
			}
			NOT = { exists = U02 }
		}
		
		effect = {
			add_country_modifier = {
				name = "army_enthusiasm"
				duration = 9125 #25 years
			}
			454 = {
				if = {
					limit = {
						NOT = {
							is_permanent_claim = ROOT
							is_core = ROOT
						}
					}
					add_permanent_claim = ROOT
				}
			}
			459 = {
				if = {
					limit = {
						NOT = {
							is_permanent_claim = ROOT
							is_core = ROOT
						}
					}
					add_permanent_claim = ROOT
				}
			}
			460 = {
				if = {
					limit = {
						NOT = {
							is_permanent_claim = ROOT
							is_core = ROOT
						}
					}
					add_permanent_claim = ROOT
				}
			}
			461 = {
				if = {
					limit = {
						NOT = {
							is_permanent_claim = ROOT
							is_core = ROOT
						}
					}
					add_permanent_claim = ROOT
				}
			}
		}
		
	}
	
	kheterata_secure_western_border = {
		icon = mission_cannons_firing
		required_missions = { kheterata_supress_nirat_rebellion }
		provinces_to_highlight = {
			OR = {
				province_id = 454
				province_id = 459
				province_id = 460
				province_id = 461
			}
			NOT = {
				country_or_non_sovereign_subject_holds = ROOT
			}
		}
		
		trigger = {
			454 = {
				country_or_non_sovereign_subject_holds = ROOT
			}
			459 = {
				country_or_non_sovereign_subject_holds = ROOT
			}
			460 = {
				country_or_non_sovereign_subject_holds = ROOT
			}
			461 = {
				country_or_non_sovereign_subject_holds = ROOT
			}
			NOT = { exists = U10 }
		}
		
		effect = {
			397 = {
				if = {
					limit = {
						NOT = {
							is_permanent_claim = ROOT
							is_core = ROOT
						}
					}
					add_permanent_claim = ROOT
				}
			}
			399 = {
				if = {
					limit = {
						NOT = {
							is_permanent_claim = ROOT
							is_core = ROOT
						}
					}
					add_permanent_claim = ROOT
				}
			}
			383 = {
				if = {
					limit = {
						NOT = {
							is_permanent_claim = ROOT
							is_core = ROOT
						}
					}
					add_permanent_claim = ROOT
				}
			}
			oris_area = {
				limit = {
					NOT = { is_core = ROOT }
					NOT = { is_permanent_claim = ROOT }
				}
				add_permanent_claim = ROOT
			}
			deshak_area = {
				limit = {
					NOT = { is_core = ROOT }
					NOT = { is_permanent_claim = ROOT }
				}
				add_permanent_claim = ROOT
			}
			add_casus_belli = {
				target = U06
				type = cb_vassalize_mission
			}
		}
	}
	
	kheterata_subjugate_deshak = {
		icon = mission_have_two_subjects
		required_missions = { kheterata_secure_western_border }
		provinces_to_highlight = {
			OR = {
				area = oris_area
				area = deshak_area
				province_id = 397
				province_id = 399
			}
			NOT = {
				country_or_non_sovereign_subject_holds = ROOT
			}
		}
		
		trigger = {
			397 = {
				country_or_non_sovereign_subject_holds = ROOT
			}
			399 = {
				country_or_non_sovereign_subject_holds = ROOT
			}
			383 = {
				country_or_non_sovereign_subject_holds = ROOT
			}
			oris_area = {
				type = all
				country_or_non_sovereign_subject_holds = ROOT
			}
			deshak_area = {
				type = all
				country_or_non_sovereign_subject_holds = ROOT
			}
		}
		
		effect = {
			400 = {
				if = {
					limit = {
						NOT = {
							is_permanent_claim = ROOT
							is_core = ROOT
						}
					}
					add_permanent_claim = ROOT
				}
			}
			akan_mountains_area = {
				limit = {
					NOT = { is_core = ROOT }
					NOT = { is_permanent_claim = ROOT }
				}
				add_permanent_claim = ROOT
			}
			middle_akan_area = {
				limit = {
					NOT = { is_core = ROOT }
					NOT = { is_permanent_claim = ROOT }
				}
				add_permanent_claim = ROOT
			}
			isle_of_tef_area = {
				limit = {
					NOT = { is_core = ROOT }
					NOT = { is_permanent_claim = ROOT }
				}
				add_permanent_claim = ROOT
			}
			add_casus_belli = {
				target = A47
				type = cb_vassalize_mission
			}
		}
	}
	
	kheterata_conquer_viakkoc = {
		icon = mission_cannons_firing
		required_missions = { kheterata_subjugate_deshak }
		provinces_to_highlight = {
			OR = {
				area = middle_akan_area
				area = akan_mountains_area
			}
			NOT = {
				country_or_non_sovereign_subject_holds = ROOT
			}
		}
		
		trigger = {
			middle_akan_area = {
				type = all
				country_or_non_sovereign_subject_holds = ROOT
			}
			akan_mountains_area = {
				type = all
				country_or_non_sovereign_subject_holds = ROOT
			}
		}
		
		effect = {
			ekha_area = {
				limit = {
					NOT = { is_core = ROOT }
					NOT = { is_permanent_claim = ROOT }
				}
				add_permanent_claim = ROOT
			}
			akarat_area = {
				limit = {
					NOT = { is_core = ROOT }
					NOT = { is_permanent_claim = ROOT }
				}
				add_permanent_claim = ROOT
			}
		}
	}
	
	kheterata_subjugate_ekha = {
		icon = mission_assemble_an_army
		required_missions = { kheterata_conquer_viakkoc }
		provinces_to_highlight = {
			OR = {
				area = akarat_area
				area = ekha_area
			}
			NOT = {
				country_or_non_sovereign_subject_holds = ROOT
			}
		}
		
		trigger = {
			akarat_area = {
				type = all
				country_or_non_sovereign_subject_holds = ROOT
			}
			ekha_area = {
				type = all
				country_or_non_sovereign_subject_holds = ROOT
			}
		}
		
		effect = {
			add_adm_power = 100
		}
	}
}

kheterata_eastern_expansion = {
	slot = 1
	generic = no
	ai = yes
	potential = {
		tag = U01
	}
	has_country_shield = yes
	
	kheterata_regain_eastern_ketherata = {
		icon = mission_arabian_fort
		required_missions = { kheterata_supress_nirat_rebellion }
		position = 2
		provinces_to_highlight = {
			OR = {
				area = hitputtiushesh_area
				area = awaashesh_area
				area = ibtat_axast_area
				area = masusopot_area
				area = coast_of_tears_area
			}
			NOT = {
				country_or_non_sovereign_subject_holds = ROOT
			}
		}
		
		trigger = {
			hitputtiushesh_area = {
				type = all
				country_or_non_sovereign_subject_holds = ROOT
			}
			awaashesh_area = {
				type = all
				country_or_non_sovereign_subject_holds = ROOT
			}
			ibtat_axast_area = {
				type = all
				country_or_non_sovereign_subject_holds = ROOT
			}
			masusopot_area = {
				type = all
				country_or_non_sovereign_subject_holds = ROOT
			}
			coast_of_tears_area = {
				type = all
				country_or_non_sovereign_subject_holds = ROOT
			}
		}
		
		effect = {
			elizna_area = {
				limit = {
					NOT = { is_core = ROOT }
					NOT = { is_permanent_claim = ROOT }
				}
				add_permanent_claim = ROOT
			}
		}
	}
	
	kheterata_conquer_elizna = {
		icon = mission_assemble_an_army
		required_missions = { kheterata_regain_eastern_ketherata }
		position = 3
		provinces_to_highlight = {
			OR = {
				area = elizna_area
			}
			NOT = {
				country_or_non_sovereign_subject_holds = ROOT
			}
		}
		
		trigger = {
			elizna_area = {
				type = all
				country_or_non_sovereign_subject_holds = ROOT
			}
		}
		
		effect = {
			country_event = {
				id = kheteratan_events.14
				days = 1
			}
		}
	}
}

kheterata_colonial_missions = {
	slot = 3
	generic = no
	ai = yes
	potential = {
		tag = U01
	}
	has_country_shield = yes
	
	kheterata_recolonize_tef = {
		icon = mission_sea_battles
		required_missions = { kheterata_subjugate_deshak }
		position = 4
		provinces_to_highlight = {
			OR = {
				area = isle_of_tef_area
			}
			NOT = {
				country_or_non_sovereign_subject_holds = ROOT
			}
		}
		
		trigger = {
			isle_of_tef_area = {
				type = all
				country_or_non_sovereign_subject_holds = ROOT
			}
		}
		
		effect = {
			add_country_modifier = {
				name = "eng_channel_dominance"	#Its called Merchant Navy in-game
				duration = 5475
			}
			busilari_straits_area = {
				limit = {
					NOT = { is_core = ROOT }
					NOT = { is_permanent_claim = ROOT }
				}
				add_permanent_claim = ROOT
			}
			busilar_area = {
				limit = {
					NOT = { is_core = ROOT }
					NOT = { is_permanent_claim = ROOT }
				}
				add_permanent_claim = ROOT
			}
		}
	}
	
	kheterata_land_in_busilar = {
		icon = mission_cannons_firing
		required_missions = { kheterata_recolonize_tef }
		position = 5 
		provinces_to_highlight = {
			OR = {
				area = busilari_straits_area
				area = busilar_area
			}
			NOT = {
				country_or_non_sovereign_subject_holds = ROOT
			}
		}
		
		trigger = {
			busilari_straits_area = {
				type = all
				country_or_non_sovereign_subject_holds = ROOT
			}
			busilar_area = {
				type = all
				country_or_non_sovereign_subject_holds = ROOT
			}
		}
		
		effect = {
			add_casus_belli = {
				target = U17
				type = cb_vassalize_mission
			}
			crathanor_area = {
				limit = {
					NOT = { is_core = ROOT }
					NOT = { is_permanent_claim = ROOT }
				}
				add_permanent_claim = ROOT
			}
		}
	}
	
	kheterata_crathanor_colony = {
		icon = mission_sea_battles
		required_missions = { kheterata_land_in_busilar }
		position = 6
		provinces_to_highlight = {
			OR = {
				area = crathanor_area
			}
			NOT = {
				country_or_non_sovereign_subject_holds = ROOT
			}
		}
		
		trigger = {
			crathanor_area = {
				type = all
				country_or_non_sovereign_subject_holds = ROOT
			}
		}
		
		effect = {
			add_adm_power = 50 
			add_dip_power = 50
			add_mil_power = 50
		}
	}
}

kheterata_aelantir_missions = {
	slot = 4
	generic = no
	ai = yes
	potential = {
		tag = U01
	}
	has_country_shield = yes

	kheterata_discover_aelantir = {
		icon = mission_establish_high_seas_navy
		required_missions = { }
		
		trigger = {
			custom_trigger_tooltip = {
				tooltip = aelantir_discovery.tooltip
				OR = {
					colonial_endralliande = {
						has_discovered = ROOT
					}
					colonial_dalaire = {
						has_discovered = ROOT
					}
				}
			}
		}

		effect = {
			add_country_modifier = {
				name = "colonial_enthusiasm"
				duration = 7300
			}
		}
	}
}

kheterata_economic_missions = {
	slot = 5
	generic = no
	ai = yes
	potential = {
		tag = U01
	}
	has_country_shield = yes
	
	kheterata_develop_heartlands = {
		icon = mission_early_game_buildings
		required_missions = { }
		provinces_to_highlight = {
			OR = {
				province_id = 469
				province_id = 471
				province_id = 472
				province_id = 473
				province_id = 474
				province_id = 475
			}
		}
		
		trigger = {
			475 = {
				owned_by = ROOT
				has_trade_building_trigger = yes
				has_tax_building_trigger = yes
				has_production_building_trigger = yes
			}
			473 = {
				owned_by = ROOT
				has_trade_building_trigger = yes
				has_tax_building_trigger = yes
				has_production_building_trigger = yes
			}
			469 = {
				owned_by = ROOT
				has_tax_building_trigger = yes
				has_production_building_trigger = yes
			}
			471 = {
				owned_by = ROOT
				has_tax_building_trigger = yes
				has_production_building_trigger = yes
			}
			472 = {
				owned_by = ROOT
				has_tax_building_trigger = yes
				has_production_building_trigger = yes
			}
			474 = {
				owned_by = ROOT
				has_tax_building_trigger = yes
				has_production_building_trigger = yes
			}
		}
		
		effect = {
			if = {
				limit = {
					475 = {	
						NOT = { province_has_center_of_trade_of_level = 3 }
					}
				}
				475 = {
					add_center_of_trade_level = 1
				}
			}
			469 = {
				add_base_tax = 1
				add_base_production = 1
			}
			471 = {
				add_base_tax = 1
				add_base_production = 1
			}
			472 = {
				add_base_tax = 1
				add_base_production = 1
			}
			473 = {
				add_base_tax = 1
				add_base_production = 1
			}
			474 = {
				add_base_tax = 1
				add_base_production = 1
			}
			475 = {
				add_base_tax = 1
				add_base_production = 1
			}
		}
	}
	
	kheterata_invest_in_delta = {
		icon = mission_have_manufactories
		required_missions = { kheterata_develop_heartlands }
		provinces_to_highlight = {
			OR = {
				area = mothers_delta_area
				area = coast_of_tears_area
			}
		}
		
		trigger = {
			462 = {
				owned_by = ROOT
				OR = {
					has_building = mills
					has_building = farm_estate
					has_building = tradecompany
					has_building = plantations
					has_building = textile
					has_building = weapons
					has_building = wharf
					has_building = furnace
				}
			}
			463 = {
				owned_by = ROOT
				OR = {
					has_building = mills
					has_building = farm_estate
					has_building = tradecompany
					has_building = plantations
					has_building = textile
					has_building = weapons
					has_building = wharf
					has_building = furnace
				}
			}
			464 = {
				owned_by = ROOT
				OR = {
					has_building = mills
					has_building = farm_estate
					has_building = tradecompany
					has_building = plantations
					has_building = textile
					has_building = weapons
					has_building = wharf
					has_building = furnace
				}
			}
			466 = {
				owned_by = ROOT
				OR = {
					has_building = mills
					has_building = farm_estate
					has_building = tradecompany
					has_building = plantations
					has_building = textile
					has_building = weapons
					has_building = wharf
					has_building = furnace
				}
			}
			467 = {
				owned_by = ROOT
				OR = {
					has_building = mills
					has_building = farm_estate
					has_building = tradecompany
					has_building = plantations
					has_building = textile
					has_building = weapons
					has_building = wharf
					has_building = furnace
				}
			}
			468 = {
				owned_by = ROOT
				OR = {
					has_building = mills
					has_building = farm_estate
					has_building = tradecompany
					has_building = plantations
					has_building = textile
					has_building = weapons
					has_building = wharf
					has_building = furnace
				}
			}
			503 = {
				owned_by = ROOT
				OR = {
					has_building = mills
					has_building = farm_estate
					has_building = tradecompany
					has_building = plantations
					has_building = textile
					has_building = weapons
					has_building = wharf
					has_building = furnace
				}
			}
			546 = {
				owned_by = ROOT
				OR = {
					has_building = mills
					has_building = farm_estate
					has_building = tradecompany
					has_building = plantations
					has_building = textile
					has_building = weapons
					has_building = wharf
					has_building = furnace
				}
			}
		}
		
		effect = {
			add_years_of_income = 2
			if = {
				limit = {
					463 = {	
						NOT = { province_has_center_of_trade_of_level = 3 }
					}
				}
				463 = {
					add_center_of_trade_level = 1
				}
			}
		}
	}
	
	kheterata_monument_to_elikhet = {
		icon = mission_high_income
		required_missions = { kheterata_invest_in_delta }
		provinces_to_highlight = {
			OR = {
				province_id = 475
			}
		}
	
		trigger = {
			475 = {
				development = 40
			}
		}
	
		effect = {
			475 = {
				add_province_modifier = {
					name = "dominant_trade_hub"
					duration = -1
				}
			}
		}
	}
}
	
