country_decisions = {

	corintar_nation = {
		major = yes
		potential = {
			tag = B02
			has_reform = adventurer_reform
			NOT = { has_country_flag = formed_corintar_flag }
			was_never_end_game_tag_trigger = yes
		}
		allow = {
			has_reform = found_our_nation
			is_free_or_tributary_trigger = yes
			is_nomad = no
			is_at_war = no
			#num_of_cities = 5
			adm_tech = 7
		}
		effect = {
			add_prestige = 25
			adventurer_legacy_effect = yes
			set_country_flag = formed_corintar_flag
			country_event = { id = flavor_corintar.0 days = 1 }
			
			hidden_effect = {
				clr_country_flag = 	knightly_order_adventurer
			}
			set_country_flag = adventurer_derived_government
			set_country_flag = no_formable_culture_shift
		}
		ai_will_do = {
			factor = 1
		}
		ai_importance = 400
	}
	
}