
country_decisions = {
	spread_world_tree_root = {
		potential = {
			tag = I46
			OR = {
				has_global_flag = world_tree_lvl_1
				has_global_flag = world_tree_lvl_2
				has_global_flag = world_tree_lvl_3
			}
			NOT = { has_global_flag = world_tree_destroyed }
			owns = 874
			874 = {
				OR = {
					has_building = world_tree_lvl_1
					has_building = world_tree_lvl_2
					has_building = world_tree_lvl_3
				}
			}
		}
		
		allow = {
			any_owned_province = {
				NOT = { has_building = world_tree_root }
				NOT = { has_construction = building }
				is_city = yes
				any_neighbor_province = {
					OR = {
						has_building = world_tree_lvl_1
						has_building = world_tree_lvl_2
						has_building = world_tree_lvl_3
						has_building = world_tree_root
					}
				}
				hidden_trigger = {
					NOT = { has_building = world_tree_lvl_1 }
					NOT = { has_building = world_tree_lvl_2 }
					NOT = { has_building = world_tree_lvl_3 }
				}
			}
			treasury = 100
		}
	
		effect = {
			random_owned_province = {
				limit = {
					NOT = { has_building = world_tree_root }
					NOT = { has_construction = building }
					is_city = yes
					any_neighbor_province = {
						OR = {
							has_building = world_tree_lvl_1
							has_building = world_tree_lvl_2
							has_building = world_tree_lvl_3
							has_building = world_tree_root
						}
					}
					hidden_trigger = {
						NOT = { has_building = world_tree_lvl_1 }
						NOT = { has_building = world_tree_lvl_2 }
						NOT = { has_building = world_tree_lvl_3 }
					}
				}
				add_building_construction = {
					building = world_tree_root
					speed = 1
					cost = 1
				}
			}
		}
		ai_will_do = {
			factor = 100
		}
	}
	
	remove_dead_roots = {
		potential = {
			has_global_flag = world_tree_destroyed
			world_tree_dead_root = 1
			# any_owned_province = {
				# NOT = { has_construction = building }
				# has_building = world_tree_dead_root
			# }
		}
		
		allow = {
			treasury = 200
		}
	
		effect = {
			random_owned_province = {
				limit = {
					NOT = { has_construction = building }
					has_building = world_tree_dead_root
				}
				add_building_construction = {
					building = destroying_root
					speed = 1
					cost = 1
				}
			}
			add_prestige = 1
		}
		ai_will_do = {
			factor = 100
		}
	}
	
	cleanse_cursed_land = {
		potential = {
			owns = 874
			874 = {
				has_province_modifier = wt_cursed_land
			}
		}
		
		provinces_to_highlight = {
			province_id = 874
		}
		
		allow = {
			OR = {
				ruler_culture = emerald_orc
				custom_trigger_tooltip = {
					tooltip = legendary_abjurator_cursed_tooltip
					has_ruler_flag = abjuration_3
				}
			}
		}
	
		effect = {
			874 = {
				remove_province_modifier = wt_cursed_land
			}
			add_prestige = 15
		}
		ai_will_do = {
			factor = 100
		}
	}
}



