namespace = fragments

###Start of wonders event chain

#Glowing City
province_event = {
	id = fragments.1
	title = fragments.1.t
	desc = fragments.1.d
	picture = EXPLORERS_eventPicture
	
	
	is_triggered_only = yes
	
	mean_time_to_happen = {
		days = 1
	}
	
	trigger = {
		has_dlc = "El Dorado"
		OR = {
			continent = north_america
			continent = south_america
		}
		FROM = {
			NOT = {
				has_country_flag = pf_chain_flag
				has_country_flag = pf_end_glowing_city_flag
			}
		}
		NOT = { has_global_flag = pf_end_glowing_city_flag_global }
	}
	
	#Launch the Search
	option = {
        name = fragments.1.a
        ai_chance = { factor = 100 }
		FROM = {
			hidden_effect = { set_country_flag = pf_chain_flag }
			hidden_effect = { set_variable = { searchPoints = 0 } }
			add_country_modifier = {
				name = pf_glowing_city
				duration = -1
			}
		}
	}
	#Rumours
	option = {
        name = fragments.1.b
        ai_chance = { factor = 0 }
		FROM = { hidden_effect = { set_country_flag = pf_end_glowing_city_flag } }
	}
}


#Dragon House
province_event = {
	id = fragments.2
	title = fragments.2.t
	desc = fragments.2.d
	picture = EXPLORERS_eventPicture
	
	is_triggered_only = yes
	
	mean_time_to_happen = {
		days = 1
	}
	
	trigger = {
		has_dlc = "El Dorado"
		region = amadia_region
		FROM = {
			NOT = {
				has_country_flag = pf_chain_flag
				has_country_flag = pf_end_dragon_house_flag
			}
		}
		NOT = { has_global_flag = pf_end_dragon_house_flag_global }
	}
	
	#Launch the Search
	option = {
        name = fragments.2.a
        ai_chance = { factor = 100 }
		FROM = {
			hidden_effect = { set_country_flag = pf_chain_flag }
			hidden_effect = { set_variable = { searchPoints = 0 } }
			add_country_modifier = {
				name = pf_dragon_house
				duration = -1
			}
		}
	}
	#Rumours
	option = {
        name = fragments.2.b
        ai_chance = { factor = 0 }
		FROM = { hidden_effect = { set_country_flag = pf_end_dragon_house_flag } }
	}
}

#Elfenbride's Manse
province_event = {
	id = fragments.3
	title = fragments.3.t
	desc = fragments.3.d
	picture = EXPLORERS_eventPicture
	
	is_triggered_only = yes
	
	mean_time_to_happen = {
		days = 1
	}
	
	trigger = {
		has_dlc = "El Dorado"
		OR = {
			region = rzenta_region
			region = forest_of_the_cursed_ones_region
			region = dalaire_region
		}
		FROM = {
			NOT = {
				has_country_flag = pf_chain_flag
				has_country_flag = pf_end_elfenbride_manse_flag
			}
		}
		NOT = { has_global_flag = pf_end_elfenbride_manse_flag_global }
	}
	
	#Launch the Search
	option = {
        name = fragments.3.a
        ai_chance = { factor = 100 }
		FROM = {
			hidden_effect = { set_country_flag = pf_chain_flag }
			hidden_effect = { set_variable = { searchPoints = 0 } }
			add_country_modifier = {
				name = pf_elfenbride_manse
				duration = -1
			}
		}
	}
	#Rumours
	option = {
        name = fragments.3.b
        ai_chance = { factor = 0 }
		FROM = { hidden_effect = { set_country_flag = pf_end_elfenbride_manse_flag } }
	}
}

#God Fragments
province_event = {
	id = fragments.4
	title = fragments.4.t
	desc = {
		trigger = { has_global_flag = castellar_mural_discovered }
		desc = fragments.4.d
	}
	desc = {
		trigger = { NOT = { has_global_flag = castellar_mural_discovered } }
		desc = fragments.4.dNoMural
	}
	picture = EXPLORERS_eventPicture
	
	is_triggered_only = yes
	
	mean_time_to_happen = {
		days = 1
	}
	
	trigger = {
		has_dlc = "El Dorado"
		colonial_region = colonial_noruin
		FROM = {
			NOT = {
				has_country_flag = pf_chain_flag
				has_country_flag = pf_end_god_fragment_ruin_flag
			}
		}
		NOT = { has_global_flag = pf_end_god_fragment_ruin_flag_global }
	}
	
	#Launch the Search
	option = {
        name = fragments.4.a
        ai_chance = { factor = 100 }
		FROM = {
			hidden_effect = { set_country_flag = pf_chain_flag }
			hidden_effect = { set_variable = { searchPoints = 0 } }
			add_country_modifier = {
				name = pf_god_fragment_ruin
				duration = -1
			}
		}
	}
	#Rumours
	option = {
        name = fragments.4.b
        ai_chance = { factor = 0 }
		FROM = { hidden_effect = { set_country_flag = pf_end_god_fragment_ruin_flag } }
	}
}

#Vault
province_event = {
	id = fragments.5
	title = fragments.5.t
	desc = fragments.5.d
	picture = EXPLORERS_eventPicture
	
	is_triggered_only = yes
	
	mean_time_to_happen = {
		days = 1
	}
	
	trigger = {
		has_dlc = "El Dorado"
		colonial_region = colonial_ynn
		FROM = {
			NOT = {
				has_country_flag = pf_chain_flag
				has_country_flag = pf_end_vault_flag
			}
		}
		NOT = { has_global_flag = pf_end_vault_flag_global }
	}
	
	#Launch the Search
	option = {
        name = fragments.5.a
        ai_chance = { factor = 100 }
		FROM = {
			hidden_effect = { set_country_flag = pf_chain_flag }
			hidden_effect = { set_variable = { searchPoints = 0 } }
			add_country_modifier = {
				name = pf_vault_ruin
				duration = -1
			}
		}
	}
	#Rumours
	option = {
        name = fragments.5.b
        ai_chance = { factor = 0 }
		FROM = { hidden_effect = { set_country_flag = pf_end_vault_flag } }
	}
}

#Portal Nexus
province_event = {
	id = fragments.6
	title = fragments.6.t
	desc = fragments.6.d
	picture = EXPLORERS_eventPicture
	
	is_triggered_only = yes
	
	mean_time_to_happen = {
		days = 1
	}
	
	trigger = {
		has_dlc = "El Dorado"
		OR = {
			continent = south_america
			continent = north_america
		}
		FROM = {
			NOT = {
				has_country_flag = pf_chain_flag
				has_country_flag = pf_end_portal_nexus_flag
			}
		}
		NOT = { has_global_flag = pf_end_portal_nexus_flag_global }
	}
	
	#Launch the Search
	option = {
        name = fragments.6.a
        ai_chance = { factor = 100 }
		FROM = {
			hidden_effect = { set_country_flag = pf_chain_flag }
			hidden_effect = { set_variable = { searchPoints = 0 } }
			add_country_modifier = {
				name = pf_portal_nexus_ruin
				duration = -1
			}
		}
	}
	#Rumours
	option = {
        name = fragments.6.b
        ai_chance = { factor = 0 }
		FROM = { hidden_effect = { set_country_flag = pf_end_portal_nexus_flag } }
	}
}

#Floating City Crash Site
province_event = {
	id = fragments.7
	title = fragments.7.t
	desc = fragments.7.d
	picture = EXPLORERS_eventPicture
	
	is_triggered_only = yes
	
	mean_time_to_happen = {
		days = 1
	}
	
	trigger = {
		has_dlc = "El Dorado"
		OR = {
			region = west_effelai_region
			region = east_effelai_region
			region = south_effelai_region
			region = leechdens_region
		}
		FROM = {
			NOT = {
				has_country_flag = pf_chain_flag
				has_country_flag = pf_end_floating_city_crash_site_flag
			}
		}
		NOT = { has_global_flag = pf_end_floating_city_crash_site_flag_global }
	}
	
	#Launch the Search
	option = {
        name = fragments.7.a
        ai_chance = { factor = 100 }
		FROM = {
			hidden_effect = { set_country_flag = pf_chain_flag }
			hidden_effect = { set_variable = { searchPoints = 0 } }
			add_country_modifier = {
				name = pf_floating_city_crash_site
				duration = -1
			}
		}
	}
	#Rumours
	option = {
        name = fragments.7.b
        ai_chance = { factor = 0 }
		FROM = { hidden_effect = { set_country_flag = pf_end_floating_city_crash_site_flag } }
	}
}

########
## Glowing City Chain
########

province_event = {
	id = fragments.101
	title = fragments.101.t
	desc = fragments.101.d
	picture = EXPLORERS_eventPicture
	goto = root
	
	is_triggered_only = yes
	
	mean_time_to_happen = {
		days = 1
	}
	
	trigger = {
		has_dlc = "El Dorado"
		is_empty = yes
		FROM = {
			has_country_modifier = pf_glowing_city
			NOT = { has_country_flag = pf_chain_1 }
		}
	}
	
	immediate = {
		FROM = { hidden_effect = { set_country_flag = pf_chain_1 } }
	}
	
	#Good options
	option = {
        name = fragments.101.a
        ai_chance = { factor = 100 }
		FROM = {
			hidden_effect = {
				random_list = {
					33 = { change_variable = { searchPoints = 3 } }
					33 = { change_variable = { searchPoints = 2 } }
					33 = { change_variable = { searchPoints = 1 } }
				}
			}
		}
	}
	#Best Options
	option = {
        name = fragments.101.c
        ai_chance = { factor = 100 }
		FROM = {
			hidden_effect = {
				random_list = {
					33 = { change_variable = { searchPoints = 4 } }
					33 = { change_variable = { searchPoints = 3 } }
					33 = { change_variable = { searchPoints = 2 } }
				}
			}
		}
	}
	
	#Bad options
	option = {
        name = fragments.101.b
        ai_chance = { factor = 100 }
		FROM = {
			hidden_effect = {
				random_list = {
					33 = { change_variable = { searchPoints = 2 } }
					33 = { change_variable = { searchPoints = 1 } }
					33 = { change_variable = { searchPoints = 0 } }
				}
			}
		}
	}
}

province_event = {
	id = fragments.102
	title = fragments.102.t
	desc = fragments.102.d
	picture = EXPLORERS_eventPicture
	goto = root
	
	is_triggered_only = yes
	
	mean_time_to_happen = {
		days = 1 #for days nothing really happens
	}
	
	trigger = {
		has_dlc = "El Dorado"
		is_empty = yes
		FROM = {
			has_country_modifier = pf_glowing_city
			has_country_flag = pf_chain_1
			NOT = { has_country_flag = pf_chain_2 }
		}
	}
	
	immediate = {
		FROM = { hidden_effect = { set_country_flag = pf_chain_2 } }
	}
	
	#Good options
	option = {
        name = fragments.102.a
        ai_chance = { factor = 100 }
		FROM = {
			hidden_effect = {
				random_list = {
					33 = { change_variable = { searchPoints = 3 } }
					33 = { change_variable = { searchPoints = 2 } }
					33 = { change_variable = { searchPoints = 1 } }
				}
			}
		}
	}
	#Bad Option
	option = {
        name = fragments.102.b
        ai_chance = { factor = 100 }
		FROM = {
			hidden_effect = {
				random_list = {
					33 = { change_variable = { searchPoints = 2 } }
					33 = { change_variable = { searchPoints = 1 } }
					33 = { change_variable = { searchPoints = 0 } }
				}
			}
		}
	}
	
	#Best Option
	option = {
        name = fragments.102.c
        ai_chance = { factor = 100 }
		FROM = {
			hidden_effect = {
				random_list = {
					33 = { change_variable = { searchPoints = 4 } }
					33 = { change_variable = { searchPoints = 3 } }
					33 = { change_variable = { searchPoints = 2 } }
				}
			}
		}
	}
}

province_event = {
	id = fragments.103
	title = fragments.103.t
	desc = fragments.103.d
	picture = EXPLORERS_eventPicture
	goto = root
	
	is_triggered_only = yes
	
	mean_time_to_happen = {
		days = 1
	}
	
	trigger = {
		has_dlc = "El Dorado"
		is_empty = yes
		FROM = {
			has_country_modifier = pf_glowing_city
			has_country_flag = pf_chain_2
			NOT = { has_country_flag = pf_chain_3 }
		}
	}
	
	immediate = {
		FROM = { hidden_effect = { set_country_flag = pf_chain_3 } }
	}
	
	# Bad option
	option = {
        name = fragments.103.a
        ai_chance = { factor = 100 }
		FROM = {
			hidden_effect = {
				random_list = {
					33 = { change_variable = { searchPoints = 2 } }
					33 = { change_variable = { searchPoints = 1 } }
					33 = { change_variable = { searchPoints = 0 } }
				}
			}
		}
	}
	#Best Option
	option = {
        name = fragments.103.c
        ai_chance = { factor = 100 }
		FROM = {
			hidden_effect = {
				random_list = {
					33 = { change_variable = { searchPoints = 4 } }
					33 = { change_variable = { searchPoints = 3 } }
					33 = { change_variable = { searchPoints = 2 } }
				}
			}
		}
	}
	
	#Good Option
	option = {
        name = fragments.103.b
        ai_chance = { factor = 100 }
		FROM = {
			hidden_effect = {
				random_list = {
					33 = { change_variable = { searchPoints = 3 } }
					33 = { change_variable = { searchPoints = 2 } }
					33 = { change_variable = { searchPoints = 1 } }
				}
			}
		}
	}
}

#The Glowing City end event bad
province_event = {
	id = fragments.104
	title = fragments.104.t
	desc = fragments.104.d
	picture = EXPLORERS_eventPicture
	
	
	is_triggered_only = yes
	
	mean_time_to_happen = {
		days = 1
	}
	
	trigger = {
		has_dlc = "El Dorado"
		is_empty = yes
		FROM = {
			has_country_modifier = pf_glowing_city
			has_country_flag = pf_chain_3
			check_variable = { searchPoints = 0 }
			NOT = { check_variable = { searchPoints = 4 } }
			NOT = { has_global_flag = pf_end_glowing_city_flag_global }
		}
	}
	
	immediate = {
		hidden_effect = {
			FROM = { clear_precursor_fragments_search = yes }
		}
	}
	
	# Found nothing
	option = {
        name = fragments.104.a
        ai_chance = { factor = 100 }
		FROM = {
			add_prestige = -5
			hidden_effect = { set_country_flag = pf_end_glowing_city_flag }
		}
	}
}

#The Glowing City end event good
province_event = {
	id = fragments.105
	title = fragments.105.t
	desc = fragments.105.d
	picture = EXPLORERS_eventPicture
	
	is_triggered_only = yes
	
	mean_time_to_happen = {
		days = 1
	}
	
	trigger = {
		has_dlc = "El Dorado"
		is_empty = yes
		FROM = {
			has_country_modifier = pf_glowing_city
			has_country_flag = pf_chain_3
			check_variable = { searchPoints = 4 }
			NOT = { check_variable = { searchPoints = 7 } }
			NOT = { has_global_flag = pf_end_glowing_city_flag_global }
		}
	}
	
	immediate = {
		hidden_effect = {
			FROM = { clear_precursor_fragments_search = yes }
		}
	}
	
	# Found some shit
	option = {
        name = fragments.105.a
        ai_chance = { factor = 100 }
		FROM = {
			add_prestige = 5
			add_treasury = 400
			hidden_effect = { set_country_flag = pf_end_glowing_city_flag }
		}
	}
}

#The Glowing City end event wonder
province_event = {
	id = fragments.106
	title = fragments.106.t
	desc = fragments.106.d
	picture = EXPLORERS_eventPicture
	
	is_triggered_only = yes
	major = yes
	
	mean_time_to_happen = {
		days = 1
	}
	
	trigger = {
		has_dlc = "El Dorado"
		is_empty = yes
		FROM = {
			has_country_modifier = pf_glowing_city
			has_country_flag = pf_chain_3
			check_variable = { searchPoints = 7 }
			NOT = { has_global_flag = pf_end_glowing_city_flag_global }
		}
	}
	
	immediate = {
		hidden_effect = {
			FROM = { clear_precursor_fragments_search = yes }
			set_global_flag = pf_end_glowing_city_flag_global
		}
	}
	
	# Found good shit
	option = {
        name = fragments.106.a
        ai_chance = { factor = 100 }
		FROM = {
			add_prestige = 25
			add_treasury = 800
			hidden_effect = { set_country_flag = pf_end_glowing_city_flag }
		}
		every_country = {
			limit = { has_country_modifier = pf_glowing_city }
			FROM = { clear_precursor_fragments_search = yes }
		}
		add_permanent_province_modifier = {
			name = the_glowing_city
			duration = -1
		}
		hidden_effect = { set_province_flag = permanent_damestear }
		change_trade_goods = damestear
		add_base_production = 5
		add_base_tax = 4
		add_base_manpower = 2
	}
}

#####################
# Dragon House chain
#####################

province_event = {
	id = fragments.201
	title = fragments.201.t
	desc = fragments.201.d
	picture = EXPLORERS_eventPicture
	goto = root
	
	is_triggered_only = yes
	
	mean_time_to_happen = {
		days = 1
	}
	
	trigger = {
		has_dlc = "El Dorado"
		is_empty = yes
		region = amadia_region
		FROM = {
			has_country_modifier = pf_dragon_house
			NOT = { has_country_flag = pf_chain_1 }
		}
	}
	
	immediate = {
		FROM = { hidden_effect = { set_country_flag = pf_chain_1 } }
	}
	
	#Best option
	option = {
        name = fragments.201.a
        ai_chance = { factor = 100 }
		FROM = {
			hidden_effect = {
				random_list = {
					33 = { change_variable = { searchPoints = 4 } }
					33 = { change_variable = { searchPoints = 3 } }
					33 = { change_variable = { searchPoints = 2 } }
				}
			}
		}
		FROM = {
			add_adm_power = -10
		}
	}
	#Bad Option
	option = {
        name = fragments.201.b
        ai_chance = { factor = 100 }
		FROM = {
			hidden_effect = {
				random_list = {
					33 = { change_variable = { searchPoints = 2 } }
					33 = { change_variable = { searchPoints = 1 } }
					33 = { change_variable = { searchPoints = 0 } }
				}
			}
		}
		FROM = {
			add_mil_power = -10
		}
	}
	
	#Good Option
	option = {
        name = fragments.201.c
        ai_chance = { factor = 100 }
		FROM = {
			hidden_effect = {
				random_list = {
					33 = { change_variable = { searchPoints = 3 } }
					33 = { change_variable = { searchPoints = 2 } }
					33 = { change_variable = { searchPoints = 1 } }
				}
			}
		}
		add_base_tax = 1
	}
}

province_event = {
	id = fragments.202
	title = fragments.202.t
	desc = fragments.202.d
	picture = EXPLORERS_eventPicture
	goto = root
	
	is_triggered_only = yes
	
	mean_time_to_happen = {
		days = 1
	}
	
	trigger = {
		has_dlc = "El Dorado"
		is_empty = yes
		region = amadia_region
		FROM = {
			has_country_modifier = pf_dragon_house
			has_country_flag = pf_chain_1
			NOT = { has_country_flag = pf_chain_2 }
		}
	}
	
	immediate = {
		FROM = { hidden_effect = { set_country_flag = pf_chain_2 } }
	}
	
	#Best option
	option = {
        name = fragments.202.a
        ai_chance = { factor = 100 }
		FROM = {
			hidden_effect = {
				random_list = {
					33 = { change_variable = { searchPoints = 4 } }
					33 = { change_variable = { searchPoints = 3 } }
					33 = { change_variable = { searchPoints = 2 } }
				}
			}
		}
	}
	#Bad Option
	option = {
        name = fragments.202.b
        ai_chance = { factor = 100 }
		FROM = {
			hidden_effect = {
				random_list = {
					33 = { change_variable = { searchPoints = 2 } }
					33 = { change_variable = { searchPoints = 1 } }
					33 = { change_variable = { searchPoints = 0 } }
				}
			}
		}
		FROM = {
			add_treasury = 100
		}
	}
	
	#Good Option
	option = {
        name = fragments.202.c
        ai_chance = { factor = 100 }
		FROM = {
			hidden_effect = {
				random_list = {
					33 = { change_variable = { searchPoints = 3 } }
					33 = { change_variable = { searchPoints = 2 } }
					33 = { change_variable = { searchPoints = 1 } }
				}
			}
		}
		FROM = {
			add_adm_power = -10
		}
	}
}

province_event = {
	id = fragments.203
	title = fragments.203.t
	desc = fragments.203.d
	picture = EXPLORERS_eventPicture
	goto = root
	
	is_triggered_only = yes
	
	mean_time_to_happen = {
		days = 1
	}
	
	trigger = {
		has_dlc = "El Dorado"
		is_empty = yes
		region = amadia_region
		FROM = {
			has_country_modifier = pf_dragon_house
			has_country_flag = pf_chain_2
			NOT = { has_country_flag = pf_chain_3 }
		}
	}
	
	immediate = {
		FROM = { hidden_effect = { set_country_flag = pf_chain_3 } }
	}
	
	#Bad option
	option = {
        name = fragments.203.a
        ai_chance = { factor = 1 }
		FROM = {
			hidden_effect = {
				random_list = {
					33 = { change_variable = { searchPoints = 2 } }
					33 = { change_variable = { searchPoints = 1 } }
					33 = { change_variable = { searchPoints = 0 } }
				}
			}
		}
		FROM = {
			add_dip_power = -50
		}
	}
	#Best Option
	option = {
        name = fragments.203.b
        ai_chance = { factor = 100 }
		trigger = {
			FROM = {
				AND = {
					estate_influence = {
						estate = estate_mages
						influence = 50
					}
					estate_influence = {
						estate = estate_artificers
						influence = 50
					}
				}
			}
		}
		FROM = {
			hidden_effect = {
				random_list = {
					33 = { change_variable = { searchPoints = 4 } }
					33 = { change_variable = { searchPoints = 3 } }
					33 = { change_variable = { searchPoints = 2 } }
				}
			}
		}
	}
	
	#Good Option
	option = {
        name = fragments.203.c
        ai_chance = { factor = 100 }
		trigger = { 
			is_abjuration_2 = yes
		}
		FROM = {
			hidden_effect = {
				random_list = {
					33 = { change_variable = { searchPoints = 3 } }
					33 = { change_variable = { searchPoints = 2 } }
					33 = { change_variable = { searchPoints = 1 } }
				}
			}
		}
		FROM = {
			add_dip_power = -100
		}
		custom_tooltip = tooltip_option_abjuration_2
	}
}

#The Dragon House end event bad
province_event = {
	id = fragments.204
	title = fragments.204.t
	desc = fragments.204.d
	picture = EXPLORERS_eventPicture
	
	is_triggered_only = yes
	
	mean_time_to_happen = {
		days = 1
	}
	
	trigger = {
		has_dlc = "El Dorado"
		is_empty = yes
		region = amadia_region
		FROM = {
			has_country_modifier = pf_dragon_house
			has_country_flag = pf_chain_3
			check_variable = { searchPoints = 0 }
			NOT = { check_variable = { searchPoints = 4 } }
			NOT = { has_global_flag = pf_end_dragon_house_flag_global }
		}
	}
	
	immediate = {
		hidden_effect = {
			FROM = { clear_precursor_fragments_search = yes }
		}
	}
	
	# Found nothing
	option = {
        name = fragments.204.a
        ai_chance = { factor = 100 }
		FROM = {
			add_prestige = -5
			hidden_effect = { set_country_flag = pf_end_dragon_house_flag }
		}
	}
}

#The Dragon House end event good
province_event = {
	id = fragments.205
	title = fragments.205.t
	desc = fragments.205.d
	picture = EXPLORERS_eventPicture
	
	is_triggered_only = yes
	
	mean_time_to_happen = {
		days = 1
	}
	
	trigger = {
		has_dlc = "El Dorado"
		is_empty = yes
		region = amadia_region
		FROM = {
			has_country_modifier = pf_dragon_house
			has_country_flag = pf_chain_3
			check_variable = { searchPoints = 4 }
			NOT = { check_variable = { searchPoints = 7 } }
			NOT = { has_global_flag = pf_end_dragon_house_flag_global }
		}
	}
	
	immediate = {
		hidden_effect = {
			FROM = { clear_precursor_fragments_search = yes }
		}
	}
	
	# Found some shit
	option = {
        name = fragments.205.a
        ai_chance = { factor = 100 }
		FROM = {
			add_prestige = 5
			add_treasury = 400
			hidden_effect = { set_country_flag = pf_end_dragon_house_flag }
		}
	}
}

#The Dragon House end event wonder
province_event = {
	id = fragments.206
	title = fragments.206.t
	desc = fragments.206.d
	picture = EXPLORERS_eventPicture
	
	is_triggered_only = yes
	major = yes
	
	mean_time_to_happen = {
		days = 1
	}
	
	trigger = {
		has_dlc = "El Dorado"
		is_empty = yes
		region = amadia_region
		FROM = {
			has_country_modifier = pf_dragon_house
			has_country_flag = pf_chain_3
			check_variable = { searchPoints = 7 }
			NOT = { has_global_flag = pf_end_dragon_house_flag_global }
		}
	}
	
	immediate = {
		hidden_effect = {
			FROM = { clear_precursor_fragments_search = yes }
			set_global_flag = pf_end_dragon_house_flag_global
		}
	}
	
	# Found good shit
	option = {
        name = fragments.206.a
        ai_chance = { factor = 100 }
		FROM = {
			add_prestige = 25
			increase_legitimacy_large_effect = yes
			add_treasury = 800
			hidden_effect = { set_country_flag = pf_end_dragon_house_flag }
		}
		every_country = {
			limit = { has_country_modifier = pf_dragon_house }
			FROM = { clear_precursor_fragments_search = yes }
		}
		add_permanent_province_modifier = {
			name = the_dragon_house
			duration = -1
		}
		set_add_relics_count = yes
		hidden_effect = { set_province_flag = permanent_precursor_relics }
		change_trade_goods = precursor_relics
		add_base_production = 5
		add_base_tax = 5
		add_base_manpower = 5
	}
}

#########################
#Elfenbride's Manse Chain
#########################

province_event = {
	id = fragments.301
	title = fragments.301.t
	desc = fragments.301.d
	picture = EXPLORERS_eventPicture
	goto = root
	
	is_triggered_only = yes
	
	mean_time_to_happen = {
		days = 1
	}
	
	trigger = {
		has_dlc = "El Dorado"
		is_empty = yes
		OR = {
			region = rzenta_region
			region = forest_of_the_cursed_ones_region
			region = dalaire_region
		}
		FROM = {
			has_country_modifier = pf_elfenbride_manse
			NOT = { has_country_flag = pf_chain_1 }
		}
	}
	
	immediate = {
		FROM = { hidden_effect = { set_country_flag = pf_chain_1 } }
	}
	
	#Good Option
	option = {
        name = fragments.301.a
        ai_chance = { factor = 100 }
		FROM = {
			hidden_effect = {
				random_list = {
					33 = { change_variable = { searchPoints = 3 } }
					33 = { change_variable = { searchPoints = 2 } }
					33 = { change_variable = { searchPoints = 1 } }
				}
			}
		}
		FROM = {
			add_adm_power = 5
			add_dip_power = 5
			add_mil_power = 5
		}
	}
	#Best option
	option = {
        name = fragments.301.b
        ai_chance = { factor = 100 }
		FROM = {
			hidden_effect = {
				random_list = {
					33 = { change_variable = { searchPoints = 4 } }
					33 = { change_variable = { searchPoints = 3 } }
					33 = { change_variable = { searchPoints = 2 } }
				}
			}
		}
		FROM = {
			add_prestige = 5
		}
	}
	#bad Option
	option = {
        name = fragments.301.c
        ai_chance = { factor = 100 }
		FROM = {
			hidden_effect = {
				random_list = {
					33 = { change_variable = { searchPoints = 2 } }
					33 = { change_variable = { searchPoints = 1 } }
					33 = { change_variable = { searchPoints = 0 } }
				}
			}
		}
		FROM = {
			add_prestige = -10
		}
	}
}

province_event = {
	id = fragments.302
	title = fragments.302.t
	desc = fragments.302.d
	picture = EXPLORERS_eventPicture
	goto = root
	
	is_triggered_only = yes
	
	mean_time_to_happen = {
		days = 1
	}
	
	trigger = {
		has_dlc = "El Dorado"
		is_empty = yes
		OR = {
			region = rzenta_region
			region = forest_of_the_cursed_ones_region
			region = dalaire_region
		}
		FROM = {
			has_country_modifier = pf_elfenbride_manse
			has_country_flag = pf_chain_1
			NOT = { has_country_flag = pf_chain_2 }
		}
	}
	
	immediate = {
		FROM = { hidden_effect = { set_country_flag = pf_chain_2 } }
	}
	
	#Bad option
	option = {
        name = fragments.302.a
        ai_chance = { factor = 100 }
		FROM = {
			hidden_effect = {
				random_list = {
					50 = { change_variable = { searchPoints = 1 } }
					50 = { change_variable = { searchPoints = 0 } }
				}
			}
		}
		random_list = {
			66 = {
				kill_leader = {
					type = conquistador
				}
			}
			33 = { 
				FROM = { add_treasury = 666 }
			}
		}
	}
	#Good Option
	option = {
        name = fragments.302.b
        ai_chance = { factor = 100 }
		FROM = {
			hidden_effect = {
				random_list = {
					33 = { change_variable = { searchPoints = 3 } }
					33 = { change_variable = { searchPoints = 2 } }
					33 = { change_variable = { searchPoints = 1 } }
				}
			}
		}
		FROM = {
			add_mil_power = -100
		}
	}
	
	#Best Option
	option = {
        name = fragments.302.c
        ai_chance = { factor = 100 }
		FROM = {
			hidden_effect = {
				random_list = {
					33 = { change_variable = { searchPoints = 4 } }
					33 = { change_variable = { searchPoints = 3 } }
					33 = { change_variable = { searchPoints = 2 } }
				}
			}
		}
		FROM = {
			add_adm_power = -100
			set_country_flag = pf_elfenbride_tablet
		}
	}
}

province_event = {
	id = fragments.303
	title = fragments.303.t
	desc = fragments.303.d
	picture = EXPLORERS_eventPicture
	goto = root
	
	is_triggered_only = yes
	
	mean_time_to_happen = {
		days = 1
	}
	
	trigger = {
		has_dlc = "El Dorado"
		is_empty = yes
		OR = {
			region = rzenta_region
			#region = forest_of_the_cursed_ones_region
			#region = dalaire_region
		}
		FROM = {
			has_country_modifier = pf_elfenbride_manse
			has_country_flag = pf_chain_2
			NOT = { has_country_flag = pf_chain_3 }
		}
	}
	
	immediate = {
		FROM = { hidden_effect = { set_country_flag = pf_chain_3 } }
	}
	
	#Good option
	option = {
        name = fragments.303.a
        ai_chance = { factor = 50 }
		FROM = {
			hidden_effect = {
				random_list = {
					33 = { change_variable = { searchPoints = 3 } }
					33 = { change_variable = { searchPoints = 2 } }
					33 = { change_variable = { searchPoints = 1 } }
				}
			}
		}
		FROM = {
			add_adm_power = -33
		}
	}
	#Best Option
	option = {
        name = fragments.303.b
        ai_chance = { factor = 100 }
		trigger = {
			FROM = { has_country_flag = pf_elfenbride_tablet }
		}
		FROM = {
			hidden_effect = {
				random_list = {
					50 = { change_variable = { searchPoints = 4 } }
					50 = { change_variable = { searchPoints = 3 } }
				}
			}
		}
		custom_tooltip = tooltip_elfenbride_tablet
	}
	
	#Bad Option
	option = {
        name = fragments.303.c
        ai_chance = { factor = 50 }
		FROM = {
			hidden_effect = {
				random_list = {
					33 = { change_variable = { searchPoints = 2 } }
					33 = { change_variable = { searchPoints = 1 } }
					33 = { change_variable = { searchPoints = 0 } }
				}
			}
			add_mil_power = -33
		}
	}
}

#The Elfenbride Manse end event bad
province_event = {
	id = fragments.304
	title = fragments.304.t
	desc = fragments.304.d
	picture = EXPLORERS_eventPicture
	
	
	is_triggered_only = yes
	
	mean_time_to_happen = {
		days = 1
	}
	
	trigger = {
		has_dlc = "El Dorado"
		is_empty = yes
		OR = {
			region = rzenta_region
			region = forest_of_the_cursed_ones_region
			region = dalaire_region
		}
		FROM = {
			has_country_modifier = pf_elfenbride_manse
			has_country_flag = pf_chain_3
			check_variable = { searchPoints = 0 }
			NOT = { check_variable = { searchPoints = 4 } }
			NOT = { has_global_flag = pf_end_elfenbride_manse_flag_global }
		}
	}
	
	immediate = {
		hidden_effect = {
			FROM = { clear_precursor_fragments_search = yes }
		}
	}
	
	# Found nothing
	option = {
        name = fragments.304.a
        ai_chance = { factor = 100 }
		FROM = {
			add_prestige = -5
			hidden_effect = { set_country_flag = pf_end_elfenbride_manse_flag }
		}
	}
}

#The Elfenbride Manse end event good
province_event = {
	id = fragments.305
	title = fragments.305.t
	desc = fragments.305.d
	picture = EXPLORERS_eventPicture
	
	is_triggered_only = yes
	
	mean_time_to_happen = {
		days = 1
	}
	
	trigger = {
		has_dlc = "El Dorado"
		is_empty = yes
		OR = {
			region = rzenta_region
			region = forest_of_the_cursed_ones_region
			region = dalaire_region
		}
		FROM = {
			has_country_modifier = pf_elfenbride_manse
			has_country_flag = pf_chain_3
			check_variable = { searchPoints = 4 }
			NOT = { check_variable = { searchPoints = 7 } }
			NOT = { has_global_flag = pf_end_elfenbride_manse_flag_global }
		}
	}
	
	immediate = {
		hidden_effect = {
			FROM = { clear_precursor_fragments_search = yes }
		}
	}
	
	# Found some shit
	option = {
        name = fragments.305.a
        ai_chance = { factor = 100 }
		FROM = {
			add_prestige = 30
			add_treasury = 200
			hidden_effect = { set_country_flag = pf_end_elfenbride_manse_flag }
		}
	}
}

#The Elfenbride Manse end event wonder
province_event = {
	id = fragments.306
	title = fragments.306.t
	desc = fragments.306.d
	picture = EXPLORERS_eventPicture
	
	is_triggered_only = yes
	major = yes
	
	mean_time_to_happen = {
		days = 1
	}
	
	trigger = {
		has_dlc = "El Dorado"
		is_empty = yes
		OR = {
			region = rzenta_region
			#region = forest_of_the_cursed_ones_region
			#region = dalaire_region
		}
		FROM = {
			has_country_modifier = pf_elfenbride_manse
			has_country_flag = pf_chain_3
			check_variable = { searchPoints = 7 }
			NOT = { has_global_flag = pf_end_elfenbride_manse_flag_global }
		}
	}
	
	immediate = {
		hidden_effect = {
			FROM = { clear_precursor_fragments_search = yes }
			set_global_flag = pf_end_elfenbride_manse_flag_global
		}
	}
	
	# Found good shit
	option = {
        name = fragments.306.a
        ai_chance = { factor = 100 }
		FROM = {
			add_prestige = 25
			add_treasury = 1200
			hidden_effect = { set_country_flag = pf_end_elfenbride_manse_flag }
		}
		every_country = {
			limit = { has_country_modifier = pf_elfenbride_manse }
			FROM = { clear_precursor_fragments_search = yes }
		}
		add_permanent_province_modifier = {
			name = elfenbride_manse
			duration = -1
		}
		change_trade_goods = tropical_wood
		add_base_production = 5
		add_base_tax = 5
		add_base_manpower = 5
		
		hidden_effect = {
			set_province_flag = damestear_no_spawn
			set_province_flag = relic_no_spawn
		}
	}
}

#########################
#God Fragment Ruin Chain
#########################

province_event = {
	id = fragments.401
	title = fragments.401.t
	desc = fragments.401.d
	picture = EXPLORERS_eventPicture
	goto = root
	
	is_triggered_only = yes
	
	mean_time_to_happen = {
		days = 1
	}
	
	trigger = {
		has_dlc = "El Dorado"
		is_empty = yes
		colonial_region = colonial_noruin
		FROM = {
			has_country_modifier = pf_god_fragment_ruin
			NOT = { has_country_flag = pf_chain_1 }
		}
	}
	
	immediate = {
		FROM = { hidden_effect = { set_country_flag = pf_chain_1 } }
	}
	
	#Good Option
	option = {
        name = fragments.401.a
        ai_chance = { factor = 100 }
		FROM = {
			hidden_effect = {
				random_list = {
					33 = { change_variable = { searchPoints = 3 } }
					33 = { change_variable = { searchPoints = 2 } }
					33 = { change_variable = { searchPoints = 1 } }
				}
			}
		}
		FROM = {
			add_adm_power = -50
		}
	}
	
	#bad Option
	option = {
        name = fragments.401.b
        ai_chance = { factor = 100 }
		FROM = {
			hidden_effect = {
				random_list = {
					33 = { change_variable = { searchPoints = 2 } }
					33 = { change_variable = { searchPoints = 1 } }
					33 = { change_variable = { searchPoints = 0 } }
				}
			}
		}
		FROM = {
			add_dip_power = -50
		}
	}
	#Best option
	option = {
        name = fragments.401.c
        ai_chance = { factor = 100 }
		FROM = {
			hidden_effect = {
				random_list = {
					33 = { change_variable = { searchPoints = 4 } }
					33 = { change_variable = { searchPoints = 3 } }
					33 = { change_variable = { searchPoints = 2 } }
				}
			}
		}
		add_base_tax = 1
		FROM = {
			add_mil_power = -50
		}
	}
}

province_event = {
	id = fragments.402
	title = fragments.402.t
	desc = fragments.402.d
	picture = EXPLORERS_eventPicture
	goto = root
	
	is_triggered_only = yes
	
	mean_time_to_happen = {
		days = 1
	}
	
	trigger = {
		has_dlc = "El Dorado"
		is_empty = yes
		colonial_region = colonial_noruin
		FROM = {
			has_country_modifier = pf_god_fragment_ruin
			has_country_flag = pf_chain_1
			NOT = { has_country_flag = pf_chain_2 }
		}
	}
	
	immediate = {
		FROM = { hidden_effect = { set_country_flag = pf_chain_2 } }
	}
	
	#Bad option
	option = {
        name = fragments.402.a
        ai_chance = { factor = 100 }
		FROM = {
			hidden_effect = {
				random_list = {
					33 = { change_variable = { searchPoints = 2 } }
					33 = { change_variable = { searchPoints = 1 } }
					33 = { change_variable = { searchPoints = 0 } }
				}
			}
		}
		add_base_tax = 1
	}
	#Best Option
	option = {
        name = fragments.402.b
        ai_chance = { factor = 100 }
		FROM = {
			hidden_effect = {
				random_list = {
					33 = { change_variable = { searchPoints = 4 } }
					33 = { change_variable = { searchPoints = 3 } }
					33 = { change_variable = { searchPoints = 2 } }
				}
			}
		}
		FROM = {
			add_dip_power = -33
			add_prestige = -5
		}
	}
	
	#Good Option
	option = {
        name = fragments.402.c
        ai_chance = { factor = 100 }
		FROM = {
			hidden_effect = {
				random_list = {
					33 = { change_variable = { searchPoints = 3 } }
					33 = { change_variable = { searchPoints = 2 } }
					33 = { change_variable = { searchPoints = 1 } }
				}
			}
		}
		FROM = {
			add_dip_power = -50
		}
	}
}

province_event = {
	id = fragments.403
	title = fragments.403.t
	desc = fragments.403.d
	picture = EXPLORERS_eventPicture
	goto = root
	
	is_triggered_only = yes
	
	mean_time_to_happen = {
		days = 1
	}
	
	trigger = {
		has_dlc = "El Dorado"
		is_empty = yes
		colonial_region = colonial_noruin
		FROM = {
			has_country_modifier = pf_god_fragment_ruin
			has_country_flag = pf_chain_2
			NOT = { has_country_flag = pf_chain_3 }
		}
	}
	
	immediate = {
		FROM = { hidden_effect = { set_country_flag = pf_chain_3 } }
	}
	
	#Good Option
	option = {
        name = fragments.403.a
        ai_chance = { factor = 100 }
		FROM = {
			hidden_effect = {
				random_list = {
					33 = { change_variable = { searchPoints = 3 } }
					33 = { change_variable = { searchPoints = 2 } }
					33 = { change_variable = { searchPoints = 1 } }
				}
			}
		}
		FROM = {
			add_dip_power = -25
		}
	}
	#Best option
	option = {
        name = fragments.403.b
        ai_chance = { factor = 100 }
		FROM = {
			hidden_effect = {
				random_list = {
					33 = { change_variable = { searchPoints = 4 } }
					33 = { change_variable = { searchPoints = 3 } }
					33 = { change_variable = { searchPoints = 2 } }
				}
			}
		}
		FROM = {
			add_prestige = -5
		}
	}
	
	#Bad Option
	option = {
        name = fragments.403.c
        ai_chance = { factor = 100 }
		FROM = {
			hidden_effect = {
				random_list = {
					33 = { change_variable = { searchPoints = 2 } }
					33 = { change_variable = { searchPoints = 1 } }
					33 = { change_variable = { searchPoints = 0 } }
				}
			}
		}
		FROM = {
			add_mil_power = -25
		}
	}
}

#The God Fragment's Ruin end event bad
province_event = {
	id = fragments.404 #Fragment Not Found
	title = fragments.404.t
	desc = fragments.404.d
	picture = EXPLORERS_eventPicture
	
	is_triggered_only = yes
	
	mean_time_to_happen = {
		days = 1
	}
	
	trigger = {
		has_dlc = "El Dorado"
		is_empty = yes
		colonial_region = colonial_noruin
		FROM = {
			has_country_modifier = pf_god_fragment_ruin
			has_country_flag = pf_chain_3
			check_variable = { searchPoints = 0 }
			NOT = { check_variable = { searchPoints = 4 } }
			NOT = { has_global_flag = pf_end_god_fragment_ruin_flag_global }
		}
	}
	
	immediate = {
		hidden_effect = {
			FROM = { clear_precursor_fragments_search = yes }
		}
	}
	
	# Found nothing
	option = {
        name = fragments.404.a
        ai_chance = { factor = 100 }
		FROM = {
			add_prestige = -10
			hidden_effect = { set_country_flag = pf_end_god_fragment_ruin_flag }
		}
	}
}

#The God Fragment's Ruin end event good
province_event = {
	id = fragments.405
	title = fragments.405.t
	desc = fragments.405.d
	picture = EXPLORERS_eventPicture
	
	is_triggered_only = yes
	
	mean_time_to_happen = {
		days = 1
	}
	
	trigger = {
		has_dlc = "El Dorado"
		is_empty = yes
		colonial_region = colonial_noruin
		FROM = {
			has_country_modifier = pf_god_fragment_ruin
			has_country_flag = pf_chain_3
			check_variable = { searchPoints = 4 }
			NOT = { check_variable = { searchPoints = 7 } }
			NOT = { has_global_flag = pf_end_god_fragment_ruin_flag_global }
		}
	}
	
	immediate = {
		hidden_effect = {
			FROM = { clear_precursor_fragments_search = yes }
		}
	}
	
	# Found some shit
	option = {
        name = fragments.405.a
        ai_chance = { factor = 100 }
		FROM = {
			set_add_relics_count = yes
			change_trade_goods = precursor_relics
			hidden_effect = { set_country_flag = pf_end_god_fragment_ruin_flag }
		}
		
		set_global_flag = god_fragment_found
	}
}

#The God Fragment's Ruin end event wonder
province_event = {
	id = fragments.406
	title = fragments.406.t
	desc = fragments.406.d
	picture = EXPLORERS_eventPicture
	
	is_triggered_only = yes
	major = yes
	
	mean_time_to_happen = {
		days = 1
	}
	
	trigger = {
		has_dlc = "El Dorado"
		is_empty = yes
		colonial_region = colonial_noruin
		FROM = {
			has_country_modifier = pf_god_fragment_ruin
			has_country_flag = pf_chain_3
			check_variable = { searchPoints = 7 }
		}
		NOT = { has_global_flag = pf_end_god_fragment_ruin_flag_global }
	}
	
	immediate = {
		hidden_effect = {
			FROM = { clear_precursor_fragments_search = yes }
			set_global_flag = pf_end_god_fragment_ruin_flag_global
		}
	}
	
	# Found good shit
	option = {
        name = fragments.406.a
        ai_chance = { factor = 100 }
		FROM = {
			add_prestige = 35
			add_stability_or_adm_power = yes
			add_treasury = 400
			hidden_effect = { set_country_flag = pf_end_god_fragment_ruin_flag }
		}
		every_country = {
			limit = { has_country_modifier = pf_god_fragment_ruin }
			FROM = { clear_precursor_fragments_search = yes }
		}
		add_permanent_province_modifier = {
			name = god_fragment_ruins
			duration = -1
		}
		hidden_effect = { set_province_flag = permanent_precursor_relics }
		set_add_relics_count = yes
		change_trade_goods = precursor_relics
		add_base_production = 3
		add_base_tax = 3
		add_base_manpower = 3
		
		set_global_flag = god_fragment_found
	}
}

#########################
#Ruined Vault Chain
#########################

province_event = {
	id = fragments.501
	title = fragments.501.t
	desc = fragments.501.d
	picture = EXPLORERS_eventPicture
	goto = root
	
	is_triggered_only = yes
	
	mean_time_to_happen = {
		days = 1
		
		modifier = {
			factor = 3
			FROM = { has_country_modifier = pf_vault_ruin }
		}
	}
	
	trigger = {
		has_dlc = "El Dorado"
		is_empty = yes
		colonial_region = colonial_ynn
		FROM = {
			has_country_modifier = pf_vault_ruin
			NOT = { has_country_flag = pf_chain_1 }
		}
	}
	
	immediate = {
		FROM = { hidden_effect = { set_country_flag = pf_chain_1 } }
	}
	
	#Bad option
	option = {
        name = fragments.501.a
        ai_chance = { factor = 100 }
		FROM = {
			hidden_effect = {
				random_list = {
					33 = { change_variable = { searchPoints = 2 } }
					33 = { change_variable = { searchPoints = 1 } }
					33 = { change_variable = { searchPoints = 0 } }
				}
			}
		}
	}
	#Good Option
	option = {
        name = fragments.501.b
        ai_chance = { factor = 100 }
		FROM = {
			hidden_effect = {
				random_list = {
					33 = { change_variable = { searchPoints = 3 } }
					33 = { change_variable = { searchPoints = 2 } }
					33 = { change_variable = { searchPoints = 1 } }
				}
			}
		}
	}
	
	#Best Option
	option = {
        name = fragments.501.c
        ai_chance = { factor = 100 }
		FROM = {
			hidden_effect = {
				random_list = {
					33 = { change_variable = { searchPoints = 4 } }
					33 = { change_variable = { searchPoints = 3 } }
					33 = { change_variable = { searchPoints = 2 } }
				}
			}
		}
	}
}

province_event = {
	id = fragments.502
	title = fragments.502.t
	desc = fragments.502.d
	picture = EXPLORERS_eventPicture
	goto = root
	
	is_triggered_only = yes
	
	mean_time_to_happen = {
		days = 1
		modifier = {
			factor = 3
			FROM = { has_country_modifier = pf_vault_ruin }
		}
	}
	
	trigger = {
		has_dlc = "El Dorado"
		is_empty = yes
		colonial_region = colonial_ynn
		FROM = {
			has_country_modifier = pf_vault_ruin
			has_country_flag = pf_chain_1
			NOT = { has_country_flag = pf_chain_2 }
		}
	}
	
	immediate = {
		FROM = { hidden_effect = { set_country_flag = pf_chain_2 } }
	}
	
	#Good option
	option = {
        name = fragments.502.a
        ai_chance = { factor = 100 }
		FROM = {
			hidden_effect = {
				random_list = {
					33 = { change_variable = { searchPoints = 3 } }
					33 = { change_variable = { searchPoints = 2 } }
					33 = { change_variable = { searchPoints = 1 } }
				}
			}
		}
	}
	#Best Option
	option = {
        name = fragments.502.b
        ai_chance = { factor = 100 }
		FROM = {
			hidden_effect = {
				random_list = {
					33 = { change_variable = { searchPoints = 4 } }
					33 = { change_variable = { searchPoints = 3 } }
					33 = { change_variable = { searchPoints = 2 } }
				}
			}
		}
	}
	
	#Bad Option
	option = {
        name = fragments.502.c
        ai_chance = { factor = 100 }
		FROM = {
			hidden_effect = {
				random_list = {
					33 = { change_variable = { searchPoints = 2 } }
					33 = { change_variable = { searchPoints = 1 } }
					33 = { change_variable = { searchPoints = 0 } }
				}
			}
		}
	}
}

province_event = {
	id = fragments.503
	title = fragments.503.t
	desc = fragments.503.d
	picture = EXPLORERS_eventPicture
	goto = root
	
	is_triggered_only = yes
	
	mean_time_to_happen = {
		days = 1
		modifier = {
			factor = 3
			FROM = { has_country_modifier = pf_vault_ruin }
		}
	}
	
	trigger = {
		has_dlc = "El Dorado"
		is_empty = yes
		colonial_region = colonial_ynn
		FROM = {
			has_country_modifier = pf_vault_ruin
			has_country_flag = pf_chain_2
			NOT = { has_country_flag = pf_chain_3 }
		}
	}
	
	immediate = {
		FROM = { hidden_effect = { set_country_flag = pf_chain_3 } }
	}
	
	#Bad option
	option = {
        name = fragments.503.a
        ai_chance = { factor = 100 }
		FROM = {
			hidden_effect = {
				random_list = {
					33 = { change_variable = { searchPoints = 2 } }
					33 = { change_variable = { searchPoints = 1 } }
					33 = { change_variable = { searchPoints = 0 } }
				}
			}
		}
	}
	#Good Option
	option = {
        name = fragments.503.b
        ai_chance = { factor = 100 }
		FROM = {
			hidden_effect = {
				random_list = {
					33 = { change_variable = { searchPoints = 3 } }
					33 = { change_variable = { searchPoints = 2 } }
					33 = { change_variable = { searchPoints = 1 } }
				}
			}
		}
	}
	
	#Best Option
	option = {
        name = fragments.503.c
        ai_chance = { factor = 100 }
		FROM = {
			hidden_effect = {
				random_list = {
					33 = { change_variable = { searchPoints = 4 } }
					33 = { change_variable = { searchPoints = 3 } }
					33 = { change_variable = { searchPoints = 2 } }
				}
			}
		}
	}
}

#Vault Ruin end event bad
province_event = {
	id = fragments.504
	title = fragments.504.t
	desc = fragments.504.d
	picture = EXPLORERS_eventPicture
	
	is_triggered_only = yes
	
	mean_time_to_happen = {
		days = 1
		modifier = {
			factor = 3
			FROM = { has_country_modifier = pf_vault_ruin }
		}
	}
	
	trigger = {
		has_dlc = "El Dorado"
		is_empty = yes
		colonial_region = colonial_ynn
		FROM = {
			has_country_modifier = pf_vault_ruin
			has_country_flag = pf_chain_3
			check_variable = { searchPoints = 0 }
			NOT = { check_variable = { searchPoints = 4 } }
			NOT = { has_global_flag = pf_end_vault_flag_global }
		}
	}
	
	immediate = {
		hidden_effect = {
			FROM = { clear_precursor_fragments_search = yes }
		}
	}
	
	# Found nothing
	option = {
        name = fragments.504.a
        ai_chance = { factor = 100 }
		FROM = {
			add_prestige = -5
			hidden_effect = { set_country_flag = pf_end_vault_flag }
		}
	}
}

#Vault Ruin end event good
province_event = {
	id = fragments.505
	title = fragments.505.t
	desc = fragments.505.d
	picture = EXPLORERS_eventPicture
	
	is_triggered_only = yes
	
	mean_time_to_happen = {
		days = 1
		modifier = {
			factor = 3
			FROM = { has_country_modifier = pf_vault_ruin }
		}
	}
	
	trigger = {
		has_dlc = "El Dorado"
		is_empty = yes
		colonial_region = colonial_ynn
		FROM = {
			has_country_modifier = pf_vault_ruin
			has_country_flag = pf_chain_3
			check_variable = { searchPoints = 4 }
			NOT = { check_variable = { searchPoints = 7 } }
			NOT = { has_global_flag = pf_end_vault_flag_global }
		}
	}
	
	immediate = {
		hidden_effect = {
			FROM = { clear_precursor_fragments_search = yes }
		}
	}
	
	# Found some shit
	option = {
        name = fragments.505.a
        ai_chance = { factor = 100 }
		FROM = {
			add_prestige = 5
			add_treasury = 400
			hidden_effect = { set_country_flag = pf_end_vault_flag }
		}
	}
}

#Vault Ruin end event wonder
province_event = {
	id = fragments.506
	title = fragments.506.t
	desc = fragments.506.d
	picture = EXPLORERS_eventPicture
	
	is_triggered_only = yes
	major = yes
	
	mean_time_to_happen = {
		days = 1
		modifier = {
			factor = 3
			FROM = { has_country_modifier = pf_vault_ruin }
		}
	}
	
	trigger = {
		has_dlc = "El Dorado"
		is_empty = yes
		colonial_region = colonial_ynn
		FROM = {
			has_country_modifier = pf_vault_ruin
			has_country_flag = pf_chain_3
			check_variable = { searchPoints = 7 }
			NOT = { has_global_flag = pf_end_vault_flag_global }
		}
	}
	
	immediate = {
		hidden_effect = {
			FROM = { clear_precursor_fragments_search = yes }
			set_global_flag = pf_end_vault_flag_global
		}
	}
	
	# Found good shit
	option = {
        name = fragments.506.a
        ai_chance = { factor = 100 }
		FROM = {
			add_prestige = 20
			add_treasury = 1500
			hidden_effect = { set_country_flag = pf_end_vault_flag }
		}
		every_country = {
			limit = { has_country_modifier = pf_vault_ruin }
			FROM = { clear_precursor_fragments_search = yes }
		}
		add_permanent_province_modifier = {
			name = vault_ruins
			duration = -1
		}
		hidden_effect = { set_province_flag = permanent_precursor_relics }
		set_add_relics_count = yes
		change_trade_goods = precursor_relics
		add_base_production = 5
		add_base_tax = 5
		add_base_manpower = 5
	}
}

#########################
#Portal Nexus Chain
#########################

province_event = {
	id = fragments.601
	title = fragments.601.t
	desc = fragments.601.d
	picture = EXPLORERS_eventPicture
	goto = root
	
	is_triggered_only = yes
	
	mean_time_to_happen = {
		days = 1
	}
	
	trigger = {
		has_dlc = "El Dorado"
		is_empty = yes
		OR = {
			continent = south_america
			continent = north_america
		}
		FROM = {
			has_country_modifier = pf_portal_nexus_ruin
			NOT = { has_country_flag = pf_chain_1 }
		}
	}
	
	immediate = {
		FROM = { hidden_effect = { set_country_flag = pf_chain_1 } }
	}
	
	#Good option
	option = {
        name = fragments.601.a
        ai_chance = { factor = 100 }
		FROM = {
			hidden_effect = {
				random_list = {
					33 = { change_variable = { searchPoints = 3 } }
					33 = { change_variable = { searchPoints = 2 } }
					33 = { change_variable = { searchPoints = 1 } }
				}
			}
		}
		
		FROM = {
			add_dip_power = -10
			
			set_country_flag = fragment_602_good
		}
		
	}
	#Bad Option
	option = {
        name = fragments.601.b
        ai_chance = { factor = 100 }
		FROM = {
			hidden_effect = {
				random_list = {
					33 = { change_variable = { searchPoints = 2 } }
					33 = { change_variable = { searchPoints = 1 } }
					33 = { change_variable = { searchPoints = 0 } }
				}
			}
		}
		
		FROM = {
			add_mil_power = -15
			
			set_country_flag = fragment_602_bad
		}
	}
	
	#Best Option
	option = {
        name = fragments.601.c
        ai_chance = { factor = 100 }
		FROM = {
			hidden_effect = {
				random_list = {
					33 = { change_variable = { searchPoints = 4 } }
					33 = { change_variable = { searchPoints = 3 } }
					33 = { change_variable = { searchPoints = 2 } }
				}
			}
		}
		
		FROM = {
			add_years_of_income = -0.1
			
			set_country_flag = fragment_602_best
		}
	}
}

province_event = {
	id = fragments.602
	title = fragments.602.t
	desc = {
	   trigger = { FROM = { has_country_flag = fragment_602_good } }
	   desc = fragments.602.d1
	}
	desc = {
	   trigger = { FROM = { has_country_flag = fragment_602_bad } }
	   desc = fragments.602.d2
	}
	desc = {
	   trigger = { FROM = { has_country_flag = fragment_602_best } }
	   desc = fragments.602.d3
	}
	picture = EXPLORERS_eventPicture
	goto = root
	
	is_triggered_only = yes
	
	mean_time_to_happen = {
		days = 1
	}
	
	trigger = {
		has_dlc = "El Dorado"
		is_empty = yes
		OR = {
			continent = south_america
			continent = north_america
		}
		FROM = {
			has_country_modifier = pf_portal_nexus_ruin
			has_country_flag = pf_chain_1
			NOT = { has_country_flag = pf_chain_2 }
		}
	}
	
	immediate = {
		FROM = { hidden_effect = { set_country_flag = pf_chain_2 } }
	}
	
	#Good option
	option = {
        name = fragments.602.a
        ai_chance = { factor = 100 }
		FROM = {
			hidden_effect = {
				random_list = {
					33 = { change_variable = { searchPoints = 3 } }
					33 = { change_variable = { searchPoints = 2 } }
					33 = { change_variable = { searchPoints = 1 } }
				}
			}
		}
		
		FROM = {
			add_dip_power = -25
			
			set_country_flag = fragment_603_good
		}
	}
	#Best Option
	option = {
        name = fragments.602.b
        ai_chance = { factor = 100 }
		FROM = {
			hidden_effect = {
				random_list = {
					33 = { change_variable = { searchPoints = 4 } }
					33 = { change_variable = { searchPoints = 3 } }
					33 = { change_variable = { searchPoints = 2 } }
				}
			}
		}
		
		FROM = {
			add_dip_power = -33
			
			set_country_flag = fragment_603_best
		}
	}
	
	#Bad Option
	option = {
        name = fragments.602.c
        ai_chance = { factor = 100 }
		FROM = {
			hidden_effect = {
				random_list = {
					33 = { change_variable = { searchPoints = 2 } }
					33 = { change_variable = { searchPoints = 1 } }
					33 = { change_variable = { searchPoints = 0 } }
				}
			}
		}
		
		FROM = {
			add_adm_power = -50
			
			set_country_flag = fragment_603_bad
		}
	}
}

province_event = {
	id = fragments.603
	title = fragments.603.t
	desc = {
	   trigger = { FROM = { has_country_flag = fragment_603_good } }
	   desc = fragments.603.d1
	}
	desc = {
	   trigger = { FROM = { has_country_flag = fragment_603_bad } }
	   desc = fragments.603.d2
	}
	desc = {
	   trigger = { FROM = { has_country_flag = fragment_603_best } }
	   desc = fragments.603.d3
	}
	picture = EXPLORERS_eventPicture
	goto = root
	
	is_triggered_only = yes
	
	mean_time_to_happen = {
		days = 1
	}
	
	trigger = {
		has_dlc = "El Dorado"
		is_empty = yes
		OR = {
			continent = south_america
			continent = north_america
		}
		FROM = {
			has_country_modifier = pf_portal_nexus_ruin
			has_country_flag = pf_chain_2
			NOT = { has_country_flag = pf_chain_3 }
		}
	}
	
	immediate = {
		FROM = { 
			hidden_effect = { 
				set_country_flag = pf_chain_3 
			} 
		}
	}
	
	#Bad option
	option = {
        name = fragments.603.a
        ai_chance = { factor = 100 }
		FROM = {
			hidden_effect = {
				random_list = {
					33 = { change_variable = { searchPoints = 2 } }
					33 = { change_variable = { searchPoints = 1 } }
					33 = { change_variable = { searchPoints = 0 } }
				}
			}
		}
		
		FROM = {
			add_adm_power = -20
			add_dip_power = -20
			add_mil_power = -20
			
			set_country_flag = fragment_604_bad
		}
	}
	#Good Option
	option = {
        name = fragments.603.b
        ai_chance = { factor = 100 }
		FROM = {
			hidden_effect = {
				random_list = {
					33 = { change_variable = { searchPoints = 3 } }
					33 = { change_variable = { searchPoints = 2 } }
					33 = { change_variable = { searchPoints = 1 } }
				}
			}
		}
		
		FROM = {
			set_country_flag = fragment_604_good
		}
		
		random_list = {
			33 = {
				kill_leader = {
					type = conquistador
				}
			}
			66 = { 
				FROM = { add_mil_power = 30 }
			}
		}
		

	}
	
	#Best Option
	option = {
        name = fragments.603.c
        ai_chance = { factor = 100 }
		FROM = {
			hidden_effect = {
				random_list = {
					33 = { change_variable = { searchPoints = 4 } }
					33 = { change_variable = { searchPoints = 3 } }
					33 = { change_variable = { searchPoints = 2 } }
				}
			}
		}
		
		FROM = {
			add_adm_power = -100
			
			set_country_flag = fragment_604_best
		}
	}
}

#Portal Nexus end event bad
province_event = {
	id = fragments.604
	title = fragments.604.t
	desc = {
	   trigger = { FROM = { has_country_flag = fragment_604_good } }
	   desc = fragments.604.d1
	}
	desc = {
	   trigger = { FROM = { has_country_flag = fragment_604_bad } }
	   desc = fragments.604.d2
	}
	desc = {
	   trigger = { FROM = { has_country_flag = fragment_604_best } }
	   desc = fragments.604.d3
	}
	picture = EXPLORERS_eventPicture
	
	is_triggered_only = yes
	
	mean_time_to_happen = {
		days = 1
	}
	
	trigger = {
		has_dlc = "El Dorado"
		is_empty = yes
		OR = {
			continent = south_america
			continent = north_america
		}
		FROM = {
			has_country_modifier = pf_portal_nexus_ruin
			has_country_flag = pf_chain_3
			check_variable = { searchPoints = 0 }
			NOT = { check_variable = { searchPoints = 4 } }
			NOT = { has_global_flag = pf_end_portal_nexus_flag_global }
		}
	}
	
	immediate = {
		hidden_effect = {
			FROM = { clear_precursor_fragments_search = yes }
		}
	}
	
	# Found nothing
	option = {
        name = fragments.604.a
        ai_chance = { factor = 100 }
		FROM = {
			add_prestige = -5
			hidden_effect = { set_country_flag = pf_end_portal_nexus_flag }
		}
		
		FROM = { 
			hidden_effect = { 	
				clr_country_flag = fragment_602_good
				clr_country_flag = fragment_602_bad
				clr_country_flag = fragment_602_best
				clr_country_flag = fragment_603_good
				clr_country_flag = fragment_603_bad
				clr_country_flag = fragment_603_best
				clr_country_flag = fragment_604_good
				clr_country_flag = fragment_604_bad
				clr_country_flag = fragment_604_best
			} 
		}
	}
}

#Portal Nexus end event good
province_event = {
	id = fragments.605
	title = fragments.605.t
	desc = {
	   trigger = { FROM = { has_country_flag = fragment_604_good } }
	   desc = fragments.605.d1
	}
	desc = {
	   trigger = { FROM = { has_country_flag = fragment_604_bad } }
	   desc = fragments.605.d2
	}
	desc = {
	   trigger = { FROM = { has_country_flag = fragment_604_best } }
	   desc = fragments.605.d3
	}
	picture = EXPLORERS_eventPicture
	
	is_triggered_only = yes
	
	mean_time_to_happen = {
		days = 1
	}
	
	trigger = {
		has_dlc = "El Dorado"
		is_empty = yes
		OR = {
			continent = south_america
			continent = north_america
		}
		FROM = {
			has_country_modifier = pf_portal_nexus_ruin
			has_country_flag = pf_chain_3
			check_variable = { searchPoints = 4 }
			NOT = { check_variable = { searchPoints = 7 } }
			NOT = { has_global_flag = pf_end_portal_nexus_flag_global }
		}
	}
	
	immediate = {
		hidden_effect = {
			FROM = { clear_precursor_fragments_search = yes }
		}
	}
	
	# Found some shit
	option = {
        name = fragments.605.a
        ai_chance = { factor = 100 }
		FROM = {
			add_prestige = 10
			add_treasury = 300
			hidden_effect = { set_country_flag = pf_end_portal_nexus_flag }
		}
		
		set_add_relics_count = yes
		change_trade_goods = precursor_relics

		FROM = { 
			hidden_effect = { 	
				clr_country_flag = fragment_602_good
				clr_country_flag = fragment_602_bad
				clr_country_flag = fragment_602_best
				clr_country_flag = fragment_603_good
				clr_country_flag = fragment_603_bad
				clr_country_flag = fragment_603_best
				clr_country_flag = fragment_604_good
				clr_country_flag = fragment_604_bad
				clr_country_flag = fragment_604_best
			} 
		}
	}
}

#Portal Nexus end event wonder
province_event = {
	id = fragments.606
	title = fragments.606.t
	desc = {
	   trigger = { FROM = { has_country_flag = fragment_604_good } }
	   desc = fragments.606.d1
	}
	desc = {
	   trigger = { FROM = { has_country_flag = fragment_604_bad } }
	   desc = fragments.606.d2
	}
	desc = {
	   trigger = { FROM = { has_country_flag = fragment_604_best } }
	   desc = fragments.606.d3
	}
	picture = EXPLORERS_eventPicture
	
	is_triggered_only = yes
	major = yes
	
	mean_time_to_happen = {
		days = 1
	}
	
	trigger = {
		has_dlc = "El Dorado"
		is_empty = yes
		OR = {
			continent = south_america
			continent = north_america
		}
		FROM = {
			has_country_modifier = pf_portal_nexus_ruin
			has_country_flag = pf_chain_3
			check_variable = { searchPoints = 7 }
			NOT = { has_global_flag = pf_end_portal_nexus_flag_global }
		}
	}
	
	immediate = {
		hidden_effect = {
			FROM = { clear_precursor_fragments_search = yes }
			set_global_flag = pf_end_portal_nexus_flag_global
		}
	}
	
	# Found good shit
	option = {
        name = fragments.606.a
        ai_chance = { factor = 100 }
		FROM = {
			add_prestige = 35
			add_treasury = 800
			hidden_effect = { set_country_flag = pf_end_portal_nexus_flag }
		}
		FROM = { 
			hidden_effect = { 	
				clr_country_flag = fragment_602_good
				clr_country_flag = fragment_602_bad
				clr_country_flag = fragment_602_best
				clr_country_flag = fragment_603_good
				clr_country_flag = fragment_603_bad
				clr_country_flag = fragment_603_best
				clr_country_flag = fragment_604_good
				clr_country_flag = fragment_604_bad
				clr_country_flag = fragment_604_best
			} 
		}
		every_country = {
			limit = { has_country_modifier = pf_portal_nexus_ruin }
			FROM = { clear_precursor_fragments_search = yes }
		}
		add_permanent_province_modifier = {
			name = portal_nexus
			duration = -1
		}
		hidden_effect = { set_province_flag = permanent_precursor_relics }
		set_add_relics_count = yes
		change_trade_goods = precursor_relics
		add_base_production = 6
		add_base_tax = 2
		add_base_manpower = 2
	}
}

#########################
#Floating City Crash Site Chain
#########################

province_event = {
	id = fragments.701
	title = fragments.701.t
	desc = fragments.701.d
	picture = EXPLORERS_eventPicture
	goto = root
	
	is_triggered_only = yes
	
	mean_time_to_happen = {
		days = 1
		modifier = {
			factor = 3
			FROM = { has_country_modifier = pf_floating_city_crash_site }
		}
	}
	
	trigger = {
		has_dlc = "El Dorado"
		is_empty = yes
		OR = {
			region = west_effelai_region
			region = east_effelai_region
			region = south_effelai_region
			region = leechdens_region
		}
		FROM = {
			has_country_modifier = pf_floating_city_crash_site
			NOT = { has_country_flag = pf_chain_1 }
		}
	}
	
	immediate = {
		FROM = { hidden_effect = { set_country_flag = pf_chain_1 } }
	}
	
	#Good option
	option = {
        name = fragments.701.a
        ai_chance = { factor = 100 }
		FROM = {
			hidden_effect = {
				random_list = {
					33 = { change_variable = { searchPoints = 3 } }
					33 = { change_variable = { searchPoints = 2 } }
					33 = { change_variable = { searchPoints = 1 } }
				}
			}
		}
	}
	#Bad Option
	option = {
        name = fragments.701.b
        ai_chance = { factor = 100 }
		FROM = {
			hidden_effect = {
				random_list = {
					33 = { change_variable = { searchPoints = 2 } }
					33 = { change_variable = { searchPoints = 1 } }
					33 = { change_variable = { searchPoints = 0 } }
				}
			}
		}
	}
	
	#Best Option
	option = {
        name = fragments.701.c
        ai_chance = { factor = 100 }
		FROM = {
			hidden_effect = {
				random_list = {
					33 = { change_variable = { searchPoints = 4 } }
					33 = { change_variable = { searchPoints = 3 } }
					33 = { change_variable = { searchPoints = 2 } }
				}
			}
		}
	}
}

province_event = {
	id = fragments.702
	title = fragments.702.t
	desc = fragments.702.d
	picture = EXPLORERS_eventPicture
	goto = root
	
	is_triggered_only = yes
	
	mean_time_to_happen = {
		days = 1
		modifier = {
			factor = 3
			FROM = { has_country_modifier = pf_floating_city_crash_site }
		}
	}
	
	trigger = {
		has_dlc = "El Dorado"
		is_empty = yes
		OR = {
			region = west_effelai_region
			region = east_effelai_region
			region = south_effelai_region
			region = leechdens_region
		}
		FROM = {
			has_country_modifier = pf_floating_city_crash_site
			has_country_flag = pf_chain_1
			NOT = { has_country_flag = pf_chain_2 }
		}
	}
	
	immediate = {
		FROM = { hidden_effect = { set_country_flag = pf_chain_2 } }
	}
	
	#Good option
	option = {
        name = fragments.702.a
        ai_chance = { factor = 100 }
		FROM = {
			hidden_effect = {
				random_list = {
					33 = { change_variable = { searchPoints = 3 } }
					33 = { change_variable = { searchPoints = 2 } }
					33 = { change_variable = { searchPoints = 1 } }
				}
			}
		}
	}
	#Best Option
	option = {
        name = fragments.702.b
        ai_chance = { factor = 100 }
		FROM = {
			hidden_effect = {
				random_list = {
					33 = { change_variable = { searchPoints = 4 } }
					33 = { change_variable = { searchPoints = 3 } }
					33 = { change_variable = { searchPoints = 2 } }
				}
			}
		}
	}
	
	#Bad Option
	option = {
        name = fragments.702.c
        ai_chance = { factor = 100 }
		FROM = {
			hidden_effect = {
				random_list = {
					33 = { change_variable = { searchPoints = 2 } }
					33 = { change_variable = { searchPoints = 1 } }
					33 = { change_variable = { searchPoints = 0 } }
				}
			}
		}
	}
}

province_event = {
	id = fragments.703
	title = fragments.703.t
	desc = fragments.703.d
	picture = EXPLORERS_eventPicture
	goto = root
	
	is_triggered_only = yes
	
	mean_time_to_happen = {
		days = 1
		modifier = {
			factor = 3
			FROM = { has_country_modifier = pf_floating_city_crash_site }
		}
	}
	
	trigger = {
		has_dlc = "El Dorado"
		is_empty = yes
		OR = {
			region = west_effelai_region
			region = east_effelai_region
			region = south_effelai_region
			region = leechdens_region
		}
		FROM = {
			has_country_modifier = pf_floating_city_crash_site
			has_country_flag = pf_chain_2
			NOT = { has_country_flag = pf_chain_3 }
		}
	}
	
	immediate = {
		FROM = { hidden_effect = { set_country_flag = pf_chain_3 } }
	}
	
	#Bad option
	option = {
        name = fragments.703.a
        ai_chance = { factor = 100 }
		FROM = {
			hidden_effect = {
				random_list = {
					33 = { change_variable = { searchPoints = 2 } }
					33 = { change_variable = { searchPoints = 1 } }
					33 = { change_variable = { searchPoints = 0 } }
				}
			}
		}
	}
	#Good Option
	option = {
        name = fragments.703.b
        ai_chance = { factor = 100 }
		FROM = {
			hidden_effect = {
				random_list = {
					33 = { change_variable = { searchPoints = 3 } }
					33 = { change_variable = { searchPoints = 2 } }
					33 = { change_variable = { searchPoints = 1 } }
				}
			}
		}
	}
	
	#Best Option
	option = {
        name = fragments.703.c
        ai_chance = { factor = 100 }
		FROM = {
			hidden_effect = {
				random_list = {
					33 = { change_variable = { searchPoints = 4 } }
					33 = { change_variable = { searchPoints = 3 } }
					33 = { change_variable = { searchPoints = 2 } }
				}
			}
		}
	}
}

#Floating City Crash Site end event bad
province_event = {
	id = fragments.704
	title = fragments.704.t
	desc = fragments.704.d
	picture = EXPLORERS_eventPicture
	
	is_triggered_only = yes
	
	mean_time_to_happen = {
		days = 1
		modifier = {
			factor = 3
			FROM = { has_country_modifier = pf_floating_city_crash_site }
		}
	}
	
	trigger = {
		has_dlc = "El Dorado"
		is_empty = yes
		OR = {
			region = west_effelai_region
			region = east_effelai_region
			region = south_effelai_region
			region = leechdens_region
		}
		FROM = {
			has_country_modifier = pf_floating_city_crash_site
			has_country_flag = pf_chain_3
			check_variable = { searchPoints = 0 }
			NOT = { check_variable = { searchPoints = 4 } }
			NOT = { has_global_flag = pf_end_floating_city_crash_site_flag_global }
		}
	}
	
	immediate = {
		hidden_effect = {
			FROM = { clear_precursor_fragments_search = yes }
		}
	}
	
	# Found nothing
	option = {
        name = fragments.704.a
        ai_chance = { factor = 100 }
		FROM = {
			add_prestige = -5
			hidden_effect = { set_country_flag = pf_end_floating_city_crash_site_flag }
		}
	}
}

#Floating City Crash Site end event good
province_event = {
	id = fragments.705
	title = fragments.705.t
	desc = fragments.705.d
	picture = EXPLORERS_eventPicture
	
	is_triggered_only = yes
	
	mean_time_to_happen = {
		days = 1
		modifier = {
			factor = 3
			FROM = { has_country_modifier = pf_floating_city_crash_site }
		}
	}
	
	trigger = {
		has_dlc = "El Dorado"
		is_empty = yes
		OR = {
			region = west_effelai_region
			region = east_effelai_region
			region = south_effelai_region
			region = leechdens_region
		}
		FROM = {
			has_country_modifier = pf_floating_city_crash_site
			has_country_flag = pf_chain_3
			check_variable = { searchPoints = 4 }
			NOT = { check_variable = { searchPoints = 7 } }
			NOT = { has_global_flag = pf_end_floating_city_crash_site_flag_global }
		}
	}
	
	immediate = {
		hidden_effect = {
			FROM = { clear_precursor_fragments_search = yes }
		}
	}
	
	# Found some shit
	option = {
        name = fragments.705.a
        ai_chance = { factor = 100 }
		FROM = {
			add_prestige = 5
			add_treasury = 400
			hidden_effect = { set_country_flag = pf_end_floating_city_crash_site_flag }
		}
	}
}

#Floating City Crash Site end event wonder
province_event = {
	id = fragments.706
	title = fragments.706.t
	desc = fragments.706.d
	picture = EXPLORERS_eventPicture
	
	is_triggered_only = yes
	major = yes
	
	mean_time_to_happen = {
		days = 1
		modifier = {
			factor = 3
			FROM = { has_country_modifier = pf_floating_city_crash_site }
		}
	}
	
	trigger = {
		has_dlc = "El Dorado"
		is_empty = yes
		OR = {
			region = west_effelai_region
			region = east_effelai_region
			region = south_effelai_region
			region = leechdens_region
		}
		FROM = {
			has_country_modifier = pf_floating_city_crash_site
			has_country_flag = pf_chain_3
			check_variable = { searchPoints = 7 }
			NOT = { has_global_flag = pf_end_floating_city_crash_site_flag_global }
		}
	}
	
	immediate = {
		hidden_effect = {
			FROM = { clear_precursor_fragments_search = yes }
			set_global_flag = pf_end_floating_city_crash_site_flag_global
		}
	}
	
	# Found good shit
	option = {
        name = fragments.706.a
        ai_chance = { factor = 100 }
		FROM = {
			add_prestige = 35
			add_treasury = 800
			hidden_effect = { set_country_flag = pf_end_floating_city_crash_site_flag }
		}
		every_country = {
			limit = { has_country_modifier = pf_floating_city_crash_site }
			FROM = { clear_precursor_fragments_search = yes }
		}
		add_permanent_province_modifier = {
			name = floating_city_crash_site
			duration = -1
		}
		hidden_effect = { set_province_flag = permanent_precursor_relics }
		set_add_relics_count = yes
		change_trade_goods = precursor_relics
	}
}

###################
### Random Events
###################

#Remove research flag if no longer applicable
country_event = {
	id = fragments.2000
	title = fragments.2000.t
	desc = fragments.2000.d
	picture = EXPLORERS_eventPicture
	
	is_triggered_only = yes
	
	mean_time_to_happen = {
		days = 1
	}
	
	trigger = {
		has_dlc = "El Dorado"
		has_country_flag = pf_chain_flag
		can_no_longer_find_wonders = yes
	}
	
	# Found good shit
	option = {
        name = fragments.2000.a
        ai_chance = { factor = 100 }
		add_prestige = -5
		clear_precursor_fragments_search = yes
	}
}