namespace = favored_RC

##################################################
# Castellos
##################################################

# Favored of the Gods - Castellos
country_event = {
	id = favored_RC.1
	title = "favored_RC.1.t"
	desc = "favored_RC.1.d"
	picture = RELIGION_eventPicture

	trigger = {
		has_personal_deity = castellos
		OR = {
			ruler_has_personality = righteous_personality
			ruler_has_personality = just_personality
			ruler_has_personality = well_advised_personality
		}
		has_regency = no
		NOT = { has_ruler_modifier = RC_withdrawn_meditation }
		NOT = { has_ruler_modifier = RC_emulant_castellos_1 }
		NOT = { has_ruler_modifier = RC_emulant__catellos_2 }
		NOT = { has_ruler_flag = RC_emulant_rejected_castellos}
	}

	is_triggered_only = yes

	# Emulate aspect 1
	option = {
		name = "favored_RC.1.a"
		add_ruler_modifier = {
			name = favored_RC_castellos_t_a
			hidden = yes
			duration = -1
		}
		add_ruler_modifier = {
			name = RC_withdrawn_meditation
			duration = 1825
		}
		hidden_effect = {
			country_event = {
				id = favored_RC.2
				days = 1826
			}
		}
	}

	# Emulate aspect 2
	option = {
		name = "favored_RC.1.b"
		add_ruler_modifier = {
			name = favored_RC_castellos_t_b
			hidden = yes
			duration = -1 }
		add_ruler_modifier = {
			name = RC_withdrawn_meditation
			duration = 1825
		}
		hidden_effect = {
			country_event = {
				id = favored_RC.3
				days = 1826
			}
		}
	}

	# Eschew emulation
	option = {
		name = "favored_RC.1.c"
		add_prestige = 2
		set_ruler_flag = RC_emulant_rejected_castellos
	}
}

# aspect 1
country_event = {
	id = favored_RC.2
	title = "favored_RC.2.t"
	desc = "favored_RC.2.d"
	picture = RELIGION_eventPicture

	trigger = {
		has_ruler_modifier = favored_RC_castellos_t_a
		NOT = { has_ruler_modifier = RC_withdrawn_meditation }
		NOT = { has_ruler_modifier = RC_emulant_castellos_1 }
	}

	is_triggered_only = yes

	option = {
		name = "favored_RC.2.a"
		add_ruler_modifier = {
			name = RC_emulant_castellos_1
			duration = -1
		}
	}
}

# aspect 2
country_event = {
	id = favored_RC.3
	title = "favored_RC.3.t"
	desc = "favored_RC.3.d"
	picture = RELIGION_eventPicture

	trigger = {
		has_ruler_modifier = favored_RC_castellos_t_b
		NOT = { has_ruler_modifier = RC_withdrawn_meditation }
		NOT = { has_ruler_modifier = RC_emulant_castellos_2 }
	}

	is_triggered_only = yes

	option = {
		name = "favored_RC.3.a"
		add_ruler_modifier = {
			name = RC_emulant_castellos_2
			duration = -1
		}
	}
}

##################################################
# The dame
##################################################

# Favored of the Gods - dame
country_event = {
	id = favored_RC.4
	title = "favored_RC.4.t"
	desc = "favored_RC.4.d"
	picture = RELIGION_eventPicture

	trigger = {
		has_personal_deity = the_dame
		OR = {
			ruler_has_personality = tolerant_personality
			ruler_has_personality = free_thinker_personality
			ruler_has_personality = scholar_personality
		}
		has_regency = no
		NOT = { has_ruler_modifier = RC_withdrawn_meditation }
		NOT = { has_ruler_modifier = RC_emulant_dame_1 }
		NOT = { has_ruler_modifier = RC_emulant_dame_2 }
		NOT = { has_ruler_flag = RC_emulant_rejected_dame}
	}

	is_triggered_only = yes

	# emulate aspect 1
	option = {
		name = "favored_RC.4.a"
		add_ruler_modifier = {
			name = favored_RC_dame_t_a
			hidden = yes
			duration = -1
		}
		add_ruler_modifier = {
			name = RC_withdrawn_meditation
			duration = 1825
		}
		hidden_effect = {
			country_event = {
				id = favored_RC.5
				days = 1826
			}
		}
	}

	# emulate aspect 2
	option = {
		name = "favored_RC.4.b"
		add_ruler_modifier = {
			name = favored_RC_dame_t_b
			hidden = yes
			duration = -1
		}
		add_ruler_modifier = {
			name = RC_withdrawn_meditation
			duration = 1825
		}
		hidden_effect = {
			country_event = {
				id = favored_RC.6
				days = 1826
			}
		}
	}

	# eschew emulation
	option = {
		name = "favored_RC.4.c"
		add_prestige = 2
		set_ruler_flag = RC_emulant_rejected_dame
	}
}

# aspect 1
country_event = {
	id = favored_RC.5
	title = "favored_RC.5.t"
	desc = "favored_RC.5.d"
	picture = RELIGION_eventPicture

	trigger = {
		has_ruler_modifier = favored_RC_dame_t_a
		NOT = { has_ruler_modifier = RC_withdrawn_meditation }
		NOT = { has_ruler_modifier = RC_emulant_dame_1 }
	}

	is_triggered_only = yes

	option = {
		name = "favored_RC.5.a"
		add_ruler_modifier = {
			name = RC_emulant_dame_1
			duration = -1
	  }
	}
}

# aspect 2
country_event = {
	id = favored_RC.6
	title = "favored_RC.6.t"
	desc = "favored_RC.6.d"
	picture = RELIGION_eventPicture

	trigger = {
		has_ruler_modifier = favored_RC_dame_t_b
		NOT = { has_ruler_modifier = RC_withdrawn_meditation }
		NOT = { has_ruler_modifier = RC_emulant_dame_2 }
	}

	is_triggered_only = yes

	option = {
		name = "favored_RC.6.a"
		add_ruler_modifier = {
			name = RC_emulant_dame_2
			duration = -1
		}
	}
}

##################################################
# esmaryal
##################################################

# Favored of the Gods - esmaryal
country_event = {
	id = favored_RC.7
	title = "favored_RC.7.t"
	desc = "favored_RC.7.d"
	picture = RELIGION_eventPicture

	trigger = {
		has_personal_deity = esmaryal
		OR = {
			ruler_has_personality = fertile_personality
			ruler_has_personality = kind_hearted_personality
			ruler_has_personality = charismatic_negotiator_personality
		}
		has_regency = no
		NOT = { has_ruler_modifier = RC_withdrawn_meditation }
		NOT = { has_ruler_modifier = RC_emulant_esmaryal_1 }
		NOT = { has_ruler_modifier = RC_emulant_esmaryal_2 }
		NOT = { has_ruler_flag = RC_emulant_rejected_esmaryal}
	}

	is_triggered_only = yes

	# emulate aspect 1
	option = {
		name = "favored_RC.7.a"
		add_ruler_modifier = {
			name = favored_RC_esmaryal_t_a
			duration = -1
			hidden = yes
		}
		add_ruler_modifier = {
			name = RC_withdrawn_meditation
			duration = 1825
		}
		hidden_effect = {
			country_event = {
				id = favored_RC.8
				days = 1826
			}
		}
	}

	# emulate aspect 2
	option = {
		name = "favored_RC.7.b"
		add_ruler_modifier = {
			name = favored_RC_esmaryal_t_b
			hidden = yes
			duration = -1 }
		add_ruler_modifier = {
			name = RC_withdrawn_meditation
			duration = 1825
		}
		hidden_effect = {
			country_event = {
				id = favored_RC.9
				days = 1826
			}
		}
	}

	# eschew emulation
	option = {
		name = "favored_RC.7.c"
		add_prestige = 2
		set_ruler_flag = RC_emulant_rejected_esmaryal
	}
}

# aspect 1
country_event = {
	id = favored_RC.8
	title = "favored_RC.8.t"
	desc = "favored_RC.8.d"
	picture = RELIGION_eventPicture

	trigger = {
		has_ruler_modifier = favored_RC_esmaryal_t_a
		NOT = { has_ruler_modifier = RC_withdrawn_meditation }
		NOT = { has_ruler_modifier = RC_emulant_esmaryal_1 }
	}

	is_triggered_only = yes

	option = {
		name = "favored_RC.8.a"
		add_ruler_modifier = {
			name = RC_emulant_esmaryal_1
			duration = -1
		}
	}
}

# aspect 2
country_event = {
	id = favored_RC.9
	title = "favored_RC.9.t"
	desc = "favored_RC.9.d"
	picture = RELIGION_eventPicture

	trigger = {
		has_ruler_modifier = favored_RC_esmaryal_t_b
		NOT = { has_ruler_modifier = RC_withdrawn_meditation }
		NOT = { has_ruler_modifier = RC_emulant_esmaryal_2 }
	}

	is_triggered_only = yes

	option = {
		name = "favored_RC.9.a"
		add_ruler_modifier = {
			name = RC_emulant_esmaryal_2
			duration = -1
		}
	}
}

##################################################
# Falah
##################################################

# Favored of the Gods - falah
country_event = {
	id = favored_RC.10
	title = "favored_RC.10.t"
	desc = "favored_RC.10.d"
	picture = RELIGION_eventPicture

	trigger = {
		has_personal_deity = falah
		OR = {
			ruler_has_personality = tactical_genius_personality
			ruler_has_personality = incorruptible_personality
			ruler_has_personality = conqueror_personality
		}
		has_regency = no
		NOT = { has_ruler_modifier = RC_withdrawn_meditation }
		NOT = { has_ruler_modifier = RC_emulant_falah_1 }
		NOT = { has_ruler_modifier = RC_emulant_falah_2 }
		NOT = { has_ruler_flag = RC_emulant_rejected_falah}
	}

	is_triggered_only = yes

	# Emulate aspect 1
	option = {
		name = "favored_RC.10.a"
		add_ruler_modifier = {
			name = favored_RC_falah_t_a
			hidden = yes
			duration = -1
		}
		add_ruler_modifier = {
			name = RC_withdrawn_meditation
			duration = 1825
		}
		hidden_effect = {
			country_event = {
				id = favored_RC.11
				days = 1826
			}
		}
	}

	# Emulate aspect 2
	option = {
		name = "favored_RC.10.b"
		add_ruler_modifier = {
			name = favored_RC_falah_t_b
			hidden = yes
			duration = -1
		}
		add_ruler_modifier = {
			name = RC_withdrawn_meditation
			duration = 1825
		}
		hidden_effect = {
			country_event = {
				id = favored_RC.12
				days = 1826
			}
		}
	}

	# Eschew emulation
	option = {
		name = "favored_RC.10.c"
		add_prestige = 2
		set_ruler_flag = RC_emulant_rejected_falah
	}
}

# aspect 1
country_event = {
	id = favored_RC.11
	title = "favored_RC.11.t"
	desc = "favored_RC.11.d"
	picture = RELIGION_eventPicture

	trigger = {
		has_ruler_modifier = favored_RC_falah_t_a
		NOT = { has_ruler_modifier = RC_withdrawn_meditation }
		NOT = { has_ruler_modifier = RC_emulant_falah_1 }
	}

	is_triggered_only = yes

	option = {
		name = "favored_RC.11.a"
		add_ruler_modifier = {
			name = RC_emulant_falah_1
			duration = -1
		}
	}
}

# aspect 2
country_event = {
	id = favored_RC.12
	title = "favored_RC.12.t"
	desc = "favored_RC.12.d"
	picture = RELIGION_eventPicture

	trigger = {
		has_ruler_modifier = favored_RC_falah_t_b
		NOT = { has_ruler_modifier = RC_withdrawn_meditation }
		NOT = { has_ruler_modifier = RC_emulant_falah_2 }
	}

	is_triggered_only = yes

	option = {
		name = "favored_RC.12.a"
		add_ruler_modifier = {
			name = RC_emulant_falah_2
			duration = -1
		}
	}
}

##################################################
# Nerat
##################################################

# Favored of the Gods - Nerat
country_event = {
	id = favored_RC.13
	title = "favored_RC.13.t"
	desc = "favored_RC.13.d"
	picture = RELIGION_eventPicture

	trigger = {
		has_personal_deity = nerat
		OR = {
			ruler_has_personality = just_personality
			ruler_has_personality = lawgiver_personality
			ruler_has_personality = incorruptible_personality
		}
		has_regency = no
		NOT = { has_ruler_modifier = RC_withdrawn_meditation }
		NOT = { has_ruler_modifier = RC_emulant_nerat_1 }
		NOT = { has_ruler_modifier = RC_emulant_nerat_2 }
		NOT = { has_ruler_flag = RC_emulant_rejected_nerat}
	}

	is_triggered_only = yes

	# Emulate aspect 1
	option = {
		name = "favored_RC.13.a"
		add_ruler_modifier = {
			name = favored_RC_nerat_t_a
			hidden = yes
			duration = -1
		}
		add_ruler_modifier = {
			name = RC_withdrawn_meditation
			duration = 1825
		}
		hidden_effect = {
			country_event = {
				id = favored_RC.14
				days = 1826
			}
		}
	}

	# Emulate aspect 2
	option = {
		name = "favored_RC.13.b"
		add_ruler_modifier = {
			name = favored_RC_nerat_t_b
			hidden = yes
			duration = -1
		}
		add_ruler_modifier = {
			name = RC_withdrawn_meditation
			duration = 1825
		}
		hidden_effect = {
			country_event = {
				id = favored_RC.15
				days = 1826
			}
		}
	}

	# Eschew emulation
	option = {
		name = "favored_RC.13.c"
		add_prestige = 2
		set_ruler_flag = RC_emulant_rejected_nerat
	}
}

# aspect 1
country_event = {
	id = favored_RC.14
	title = "favored_RC.14.t"
	desc = "favored_RC.14.d"
	picture = RELIGION_eventPicture

	trigger = {
		has_ruler_modifier = favored_RC_nerat_t_a
		NOT = { has_ruler_modifier = RC_withdrawn_meditation }
		NOT = { has_ruler_modifier = RC_emulant_nerat_1 }
	}

	is_triggered_only = yes

	option = {
		name = "favored_RC.14.a"
		add_ruler_modifier = {
			name = RC_emulant_nerat_1
			duration = -1
		}
	}
}

# aspect 2
country_event = {
	id = favored_RC.15
	title = "favored_RC.15.t"
	desc = "favored_RC.15.d"
	picture = RELIGION_eventPicture

	trigger = {
		has_ruler_modifier = favored_RC_nerat_t_b
		NOT = { has_ruler_modifier = RC_withdrawn_meditation }
		NOT = { has_ruler_modifier = RC_emulant_nerat_2 }
	}

	is_triggered_only = yes

	option = {
		name = "favored_RC.15.a"
		add_ruler_modifier = {
			name = RC_emulant_nerat_2
			duration = -1
		}
	}
}

##################################################
# Adean
##################################################

# Favored of the Gods - Adean
country_event = {
	id = favored_RC.16
	title = "favored_RC.16.t"
	desc = "favored_RC.16.d"
	picture = RELIGION_eventPicture

	trigger = {
		OR = {
			has_personal_deity = adean
			has_personal_deity = adean_adenica_war
			has_personal_deity = adean_adenica_admin
		}
		OR = {
			ruler_has_personality = righteous_personality
			ruler_has_personality = martial_educator_personality
			ruler_has_personality = strict_personality
		}
		has_regency = no
		NOT = { has_ruler_modifier = RC_withdrawn_meditation }
		NOT = { has_ruler_modifier = RC_emulant_adean_1 }
		NOT = { has_ruler_modifier = RC_emulant_adean_2 }
		NOT = { has_ruler_flag = RC_emulant_rejected_adean}
	}

	is_triggered_only = yes

	# Emulate aspect 1
	option = {
		name = "favored_RC.16.a"
		add_ruler_modifier = {
			name = favored_RC_adean_t_a
			hidden = yes
			duration = -1
		}
		add_ruler_modifier = {
			name = RC_withdrawn_meditation
			duration = 1825
		}
		hidden_effect = {
			country_event = {
				id = favored_RC.17
				days = 1826
			}
		}
	}

	# Emulate aspect 2
	option = {
		name = "favored_RC.16.b"
		add_ruler_modifier = {
			name = favored_RC_adean_t_b
			hidden = yes
			duration = -1
		}
		add_ruler_modifier = {
			name = RC_withdrawn_meditation
			duration = 1825
		}
		hidden_effect = {
			country_event = {
				id = favored_RC.18
				days = 1826
			}
		}
	}

	# Eschew emulation
	option = {
		name = "favored_RC.16.c"
		add_prestige = 2
		set_ruler_flag = RC_emulant_rejected_adean
	}
}

# aspect 1
country_event = {
	id = favored_RC.17
	title = "favored_RC.17.t"
	desc = "favored_RC.17.d"
	picture = RELIGION_eventPicture

	trigger = {
		has_ruler_modifier = favored_RC_adean_t_a
		NOT = { has_ruler_modifier = RC_withdrawn_meditation }
		NOT = { has_ruler_modifier = RC_emulant_adean_1 }
	}

	is_triggered_only = yes

	option = {
		name = "favored_RC.17.a"
		add_ruler_modifier = {
			name = RC_emulant_adean_1
			duration = -1
		}
	}
}

# aspect 2
country_event = {
	id = favored_RC.18
	title = "favored_RC.18.t"
	desc = "favored_RC.18.d"
	picture = RELIGION_eventPicture

	trigger = {
		has_ruler_modifier = favored_RC_adean_t_b
		NOT = { has_ruler_modifier = RC_withdrawn_meditation }
		NOT = { has_ruler_modifier = RC_emulant_adean_2 }
	}

	is_triggered_only = yes

	option = {
		name = "favored_RC.18.a"
		add_ruler_modifier = {
			name = RC_emulant_adean_2
			duration = -1
		}
	}
}

##################################################
# Ryala
##################################################

# Favored of the Gods - Ryala
country_event = {
	id = favored_RC.19
	title = "favored_RC.19.t"
	desc = "favored_RC.19.d"
	picture = RELIGION_eventPicture

	trigger = {
		has_personal_deity = ryala
		OR = {
			ruler_has_personality = calm_personality
			ruler_has_personality = careful_personality
			ruler_has_personality = incorruptible_personality
		}
		has_regency = no
		NOT = { has_ruler_modifier = RC_withdrawn_meditation }
		NOT = { has_ruler_modifier = RC_emulant_ryala_1 }
		NOT = { has_ruler_modifier = RC_emulant_ryala_2 }
		NOT = { has_ruler_flag = RC_emulant_rejected_ryala}
	}

	is_triggered_only = yes

	# Emulate aspect 1
	option = {
		name = "favored_RC.19.a"
		add_ruler_modifier = {
			name = favored_RC_ryala_t_a
			hidden = yes
			duration = -1
		}
		add_ruler_modifier = {
			name = RC_withdrawn_meditation
			duration = 1825
		}
		hidden_effect = {
			country_event = {
				id = favored_RC.20
				days = 1826
			}
		}
	}

	# Emulate aspect 2
	option = {
		name = "favored_RC.19.b"
		add_ruler_modifier = {
			name = favored_RC_ryala_t_b
			hidden = yes
			duration = -1
		}
		add_ruler_modifier = {
			name = RC_withdrawn_meditation
			duration = 1825
		}
		hidden_effect = {
			country_event = {
				id = favored_RC.21
				days = 1826
			}
		}
	}

	# Eschew emulation
	option = {
		name = "favored_RC.19.c"
		add_prestige = 2
		set_ruler_flag = RC_emulant_rejected_ryala
	}
}

# aspect 1
country_event = {
	id = favored_RC.20
	title = "favored_RC.20.t"
	desc = "favored_RC.20.d"
	picture = RELIGION_eventPicture

	trigger = {
		has_ruler_modifier = favored_RC_ryala_t_a
		NOT = { has_ruler_modifier = RC_withdrawn_meditation }
		NOT = { has_ruler_modifier = RC_emulant_ryala_1 }
	}

	is_triggered_only = yes

	option = {
		name = "favored_RC.20.a"
		add_ruler_modifier = {
			name = RC_emulant_ryala_1
			duration = -1
		}
	}
}

# aspect 2
country_event = {
	id = favored_RC.21
	title = "favored_RC.21.t"
	desc = "favored_RC.21.d"
	picture = RELIGION_eventPicture

	trigger = {
		has_ruler_modifier = favored_RC_ryala_t_b
		NOT = { has_ruler_modifier = RC_withdrawn_meditation }
		NOT = { has_ruler_modifier = RC_emulant_ryala_2 }
	}

	is_triggered_only = yes

	option = {
		name = "favored_RC.21.a"
		add_ruler_modifier = {
			name = RC_emulant_ryala_2
			duration = -1
		}
	}
}

##################################################
# Balgar the Builder
##################################################

# Favored of the Gods - Balgar
country_event = {
	id = favored_RC.22
	title = "favored_RC.22.t"
	desc = "favored_RC.22.d"
	picture = RELIGION_eventPicture

	trigger = {
		has_personal_deity = balgar
		OR = {
			ruler_has_personality = architectural_visionary_personality
			ruler_has_personality = industrious_personality
			ruler_has_personality = expansionist_personality
		}
		has_regency = no
		NOT = { has_ruler_modifier = RC_withdrawn_meditation }
		NOT = { has_ruler_modifier = RC_emulant_balgar_1 }
		NOT = { has_ruler_modifier = RC_emulant_balgar_2 }
		NOT = { has_ruler_flag = RC_emulant_rejected_balgar}
	}

	is_triggered_only = yes

	# Emulate aspect 1
	option = {
		name = "favored_RC.22.a"
		add_ruler_modifier = {
			name = favored_RC_balgar_t_a
			hidden = yes
			duration = -1
		}
		add_ruler_modifier = {
			name = RC_withdrawn_meditation
			duration = 1825
		}
		hidden_effect = {
			country_event = {
				id = favored_RC.23
				days = 1826
			}
		}
	}

	# Emulate aspect 2
	option = {
		name = "favored_RC.22.b"
		add_ruler_modifier = {
			name = favored_RC_balgar_t_b
			hidden = yes
			duration = -1
		}
		add_ruler_modifier = {
			name = RC_withdrawn_meditation
			duration = 1825
		}
		hidden_effect = {
			country_event = {
				id = favored_RC.24
				days = 1826
			}
		}
	}

	# Eschew emulation
	option = {
		name = "favored_RC.22.c"
		add_prestige = 2
		set_ruler_flag = RC_emulant_rejected_balgar
	}
}

# aspect 1
country_event = {
	id = favored_RC.23
	title = "favored_RC.23.t"
	desc = "favored_RC.23.d"
	picture = RELIGION_eventPicture

	trigger = {
		has_ruler_modifier = favored_RC_balgar_t_a
		NOT = { has_ruler_modifier = RC_withdrawn_meditation }
		NOT = { has_ruler_modifier = RC_emulant_balgar_1 }
	}

	is_triggered_only = yes

	option = {
		name = "favored_RC.23.a"
		add_ruler_modifier = {
			name = RC_emulant_balgar_1
			duration = -1
		}
	}
}

# aspect 2
country_event = {
	id = favored_RC.24
	title = "favored_RC.24.t"
	desc = "favored_RC.24.d"
	picture = RELIGION_eventPicture

	trigger = {
		has_ruler_modifier = favored_RC_balgar_t_b
		NOT = { has_ruler_modifier = RC_withdrawn_meditation }
		NOT = { has_ruler_modifier = RC_emulant_balgar_2 }
	}

	is_triggered_only = yes

	option = {
		name = "favored_RC.24.a"
		add_ruler_modifier = {
			name = RC_emulant_balgar_2
			duration = -1
		}
	}
}

##################################################
# ara
##################################################

# Favored of the Gods - ara
country_event = {
	id = favored_RC.25
	title = "favored_RC.25.t"
	desc = "favored_RC.25.d"
	picture = RELIGION_eventPicture

	trigger = {
		has_personal_deity = ara
		OR = {
			ruler_has_personality = midas_touched_personality
			ruler_has_personality = entrepreneur_personality
			ruler_has_personality = industrious_personality
		}
		has_regency = no
		NOT = { has_ruler_modifier = RC_withdrawn_meditation }
		NOT = { has_ruler_modifier = RC_emulant_ara_1 }
		NOT = { has_ruler_modifier = RC_emulant_ara_2 }
		NOT = { has_ruler_flag = RC_emulant_rejected_ara}
	}

	is_triggered_only = yes

	# Emulate aspect 1
	option = {
		name = "favored_RC.25.a"
		add_ruler_modifier = {
			name = favored_RC_ara_t_a
			hidden = yes
			duration = -1
		}
		add_ruler_modifier = {
			name = RC_withdrawn_meditation
			duration = 1825
		}
		hidden_effect = {
			country_event = {
				id = favored_RC.26
				days = 1826
			}
		}
	}

	# Emulate aspect 2
	option = {
		name = "favored_RC.25.b"
		add_ruler_modifier = {
			name = favored_RC_ara_t_b
			hidden = yes
			duration = -1
		}
		add_ruler_modifier = {
			name = RC_withdrawn_meditation
			duration = 1825
		}
		hidden_effect = {
			country_event = {
				id = favored_RC.27
				days = 1826
			}
		}
	}

	# Eschew emulation
	option = {
		name = "favored_RC.25.c"
		add_prestige = 2
		set_ruler_flag = RC_emulant_rejected_ara
	}
}

# aspect 1
country_event = {
	id = favored_RC.26
	title = "favored_RC.26.t"
	desc = "favored_RC.26.d"
	picture = RELIGION_eventPicture

	trigger = {
		has_ruler_modifier = favored_RC_ara_t_a
		NOT = { has_ruler_modifier = RC_withdrawn_meditation }
		NOT = { has_ruler_modifier = RC_emulant_ara_1 }
	}

	is_triggered_only = yes

	option = {
		name = "favored_RC.26.a"
		add_ruler_modifier = {
			name = RC_emulant_ara_1
			duration = -1
		}
	}
}

# aspect 2
country_event = {
	id = favored_RC.27
	title = "favored_RC.27.t"
	desc = "favored_RC.27.d"
	picture = RELIGION_eventPicture

	trigger = {
		has_ruler_modifier = favored_RC_ara_t_b
		NOT = { has_ruler_modifier = RC_withdrawn_meditation }
		NOT = { has_ruler_modifier = RC_emulant_ara_2 }
	}

	is_triggered_only = yes

	option = {
		name = "favored_RC.27.a"
		add_ruler_modifier = {
			name = RC_emulant_ara_2
			duration = -1
		}
	}
}

##################################################
# Munas Moonsigner
##################################################

# Favored of the Gods - munas
country_event = {
	id = favored_RC.28
	title = "favored_RC.28.t"
	desc = "favored_RC.28.d"
	picture = RELIGION_eventPicture

	trigger = {
		has_personal_deity = munas_moonsinger
		OR = {
			ruler_has_personality = navigator_personality
			ruler_has_personality = expansionist_personality
			ruler_has_personality = silver_tongue_personality
		}
		has_regency = no
		NOT = { has_ruler_modifier = RC_withdrawn_meditation }
		NOT = { has_ruler_modifier = RC_emulant_munas_1 }
		NOT = { has_ruler_modifier = RC_emulant_munas_2 }
		NOT = { has_ruler_flag = RC_emulant_rejected_munas}
	}

	is_triggered_only = yes

	# Emulate aspect 1
	option = {
		name = "favored_RC.28.a"
		add_ruler_modifier = {
			name = favored_RC_munas_t_a
			hidden = yes
			duration = -1
		}
		add_ruler_modifier = {
			name = RC_withdrawn_meditation
			duration = 1825
		}
		hidden_effect = {
			country_event = {
				id = favored_RC.29
				days = 1826
			}
		}
	}

	# Emulate aspect 2
	option = {
		name = "favored_RC.28.b"
		add_ruler_modifier = {
			name = favored_RC_munas_t_b
			hidden = yes
			duration = -1
		}
		add_ruler_modifier = {
			name = RC_withdrawn_meditation
			duration = 1825
		}
		hidden_effect = {
			country_event = {
				id = favored_RC.30
				days = 1826
			}
		}
	}

	# Eschew emulation
	option = {
		name = "favored_RC.28.c"
		add_prestige = 2
		set_ruler_flag = RC_emulant_rejected_munas
	}
}

# aspect 1
country_event = {
	id = favored_RC.29
	title = "favored_RC.29.t"
	desc = "favored_RC.29.d"
	picture = RELIGION_eventPicture

	trigger = {
		has_ruler_modifier = favored_RC_munas_t_a
		NOT = { has_ruler_modifier = RC_withdrawn_meditation }
		NOT = { has_ruler_modifier = RC_emulant_munas_1 }
	}

	is_triggered_only = yes

	option = {
		name = "favored_RC.29.a"
		add_ruler_modifier = {
			name = RC_emulant_munas_1
			duration = -1
		}
	}
}

# aspect 2
country_event = {
	id = favored_RC.30
	title = "favored_RC.30.t"
	desc = "favored_RC.30.d"
	picture = RELIGION_eventPicture

	trigger = {
		has_ruler_modifier = favored_RC_munas_t_b
		NOT = { has_ruler_modifier = RC_withdrawn_meditation }
		NOT = { has_ruler_modifier = RC_emulant_munas_2 }
	}

	is_triggered_only = yes

	option = {
		name = "favored_RC.30.a"
		add_ruler_modifier = {
			name = RC_emulant_munas_2
			duration = -1
		}
	}
}

##################################################
# Nathalyne
##################################################

# Favored of the Gods - Nathalyne
country_event = {
	id = favored_RC.31
	title = "favored_RC.31.t"
	desc = "favored_RC.31.d"
	picture = RELIGION_eventPicture

	trigger = {
		has_personal_deity = nathalyne
		OR = {
			ruler_has_personality = secretive_personality
			ruler_has_personality = intricate_webweaver_personality
			ruler_has_personality = well_connected_personality
		}
		has_regency = no
		NOT = { has_ruler_modifier = RC_withdrawn_meditation }
		NOT = { has_ruler_modifier = RC_emulant_nathalyne_1 }
		NOT = { has_ruler_modifier = RC_emulant_nathalyne_2 }
		NOT = { has_ruler_flag = RC_emulant_rejected_nathalyne}
	}

	is_triggered_only = yes

	# Emulate aspect 1
	option = {
		name = "favored_RC.31.a"
		add_ruler_modifier = {
			name = favored_RC_nathalyne_t_a
			hidden = yes
			duration = -1
		}
		add_ruler_modifier = {
			name = RC_withdrawn_meditation
			duration = 1825
		}
		hidden_effect = {
			country_event = {
				id = favored_RC.32
				days = 1826
			}
		}
	}

	# Emulate aspect 2
	option = {
		name = "favored_RC.31.b"
		add_ruler_modifier = {
			name = favored_RC_nathalyne_t_b
			hidden = yes
			duration = -1
		}
		add_ruler_modifier = {
			name = RC_withdrawn_meditation
			duration = 1825
		}
		hidden_effect = {
			country_event = {
				id = favored_RC.33
				days = 1826
			}
		}
	}

	# Eschew emulation
	option = {
		name = "favored_RC.31.c"
		add_prestige = 2
		set_ruler_flag = RC_emulant_rejected_nathalyne
	}
}

# aspect 1
country_event = {
	id = favored_RC.32
	title = "favored_RC.32.t"
	desc = "favored_RC.32.d"
	picture = RELIGION_eventPicture

	trigger = {
		has_ruler_modifier = favored_RC_nathalyne_t_a
		NOT = { has_ruler_modifier = RC_withdrawn_meditation }
		NOT = { has_ruler_modifier = RC_emulant_nathalyne_1 }
	}

	is_triggered_only = yes

	option = {
		name = "favored_RC.32.a"
		add_ruler_modifier = {
			name = RC_emulant_nathalyne_1
			duration = -1
		}
	}
}

# aspect 2
country_event = {
	id = favored_RC.33
	title = "favored_RC.33.t"
	desc = "favored_RC.33.d"
	picture = RELIGION_eventPicture

	trigger = {
		has_ruler_modifier = favored_RC_nathalyne_t_b
		NOT = { has_ruler_modifier = RC_withdrawn_meditation }
		NOT = { has_ruler_modifier = RC_emulant_nathalyne_2 }
	}

	is_triggered_only = yes

	option = {
		name = "favored_RC.33.a"
		add_ruler_modifier = {
			name = RC_emulant_nathalyne_2
			duration = -1
		}
	}
}

##################################################
# Minara
##################################################

# Favored of the Gods - minara
country_event = {
	id = favored_RC.34
	title = "favored_RC.34.t"
	desc = "favored_RC.34.d"
	picture = RELIGION_eventPicture

	trigger = {
		has_personal_deity = minara
		OR = {
			ruler_has_personality = charismatic_negotiator_personality
			ruler_has_personality = silver_tongue_personality
			ruler_has_personality = careful_personality
		}
		has_regency = no
		NOT = { has_ruler_modifier = RC_withdrawn_meditation }
		NOT = { has_ruler_modifier = RC_emulant_minara_1 }
		NOT = { has_ruler_modifier = RC_emulant_minara_2 }
		NOT = { has_ruler_flag = RC_emulant_rejected_minara}
	}

	is_triggered_only = yes

	# Emulate aspect 1
	option = {
		name = "favored_RC.34.a"
		add_ruler_modifier = {
			name = favored_RC_minara_t_a
			hidden = yes
			duration = -1
		}
		add_ruler_modifier = {
			name = RC_withdrawn_meditation
			duration = 1825
		}
		hidden_effect = {
			country_event = {
				id = favored_RC.35
				days = 1826
			}
		}
	}

	# Emulate aspect 2
	option = {
		name = "favored_RC.34.b"
		add_ruler_modifier = {
			name = favored_RC_minara_t_b
			hidden = yes
			duration = -1
		}
		add_ruler_modifier = {
			name = RC_withdrawn_meditation
			duration = 1825
		}
		hidden_effect = {
			country_event = {
				id = favored_RC.36
				days = 1826
			}
		}
	}

	# Eschew emulation
	option = {
		name = "favored_RC.34.c"
		add_prestige = 2
		set_ruler_flag = RC_emulant_rejected_minara
	}
}

# aspect 1
country_event = {
	id = favored_RC.35
	title = "favored_RC.35.t"
	desc = "favored_RC.35.d"
	picture = RELIGION_eventPicture

	trigger = {
		has_ruler_modifier = favored_RC_minara_t_a
		NOT = { has_ruler_modifier = RC_withdrawn_meditation }
		NOT = { has_ruler_modifier = RC_emulant_minara_1 }
	}

	is_triggered_only = yes

	option = {
		name = "favored_RC.35.a"
		add_ruler_modifier = {
			name = RC_emulant_minara_1
			duration = -1
		}
	}
}

# aspect 2
country_event = {
	id = favored_RC.36
	title = "favored_RC.36.t"
	desc = "favored_RC.36.d"
	picture = RELIGION_eventPicture

	trigger = {
		has_ruler_modifier = favored_RC_minara_t_b
		NOT = { has_ruler_modifier = RC_withdrawn_meditation }
		NOT = { has_ruler_modifier = RC_emulant_minara_2 }
	}

	is_triggered_only = yes

	option = {
		name = "favored_RC.36.a"
		add_ruler_modifier = {
			name = RC_emulant_minara_2
			duration = -1
		}
	}
}

##################################################
# corin
##################################################

# Favored of the Gods - corin
country_event = {
	id = favored_RC.37
	title = "favored_RC.37.t"
	desc = "favored_RC.37.d"
	picture = RELIGION_eventPicture

	trigger = {
		has_personal_deity = corin
		OR = {
			ruler_has_personality = inspiring_leader_personality
			ruler_has_personality = bold_fighter_personality
			ruler_has_personality = fierce_negotiator_personality
		}
		has_regency = no
		NOT = { has_ruler_modifier = RC_withdrawn_meditation }
		NOT = { has_ruler_modifier = RC_emulant_corin_1 }
		NOT = { has_ruler_modifier = RC_emulant_corin_2 }
		NOT = { has_ruler_flag = RC_emulant_rejected_corin}
	}

	is_triggered_only = yes

	# Emulate aspect 1
	option = {
		name = "favored_RC.37.a"
		add_ruler_modifier = {
			name = favored_RC_corin_t_a
			hidden = yes
			duration = -1
		}
		add_ruler_modifier = {
			name = RC_withdrawn_meditation
			duration = 1825
		}
		hidden_effect = {
			country_event = {
				id = favored_RC.38
				days = 1826
			}
		}
	}

	# Emulate aspect 2
	option = {
		name = "favored_RC.37.b"
		add_ruler_modifier = {
			name = favored_RC_corin_t_b
			hidden = yes
			duration = -1
		}
		add_ruler_modifier = {
			name = RC_withdrawn_meditation
			duration = 1825
		}
		hidden_effect = {
			country_event = {
				id = favored_RC.39
				days = 1826
			}
		}
	}

	# Eschew emulation
		option = {
			name = "favored_RC.37.c"
			add_prestige = 2
			set_ruler_flag = RC_emulant_rejected_corin
		}
	}

	# aspect 1
	country_event = {
		id = favored_RC.38
		title = "favored_RC.38.t"
		desc = "favored_RC.38.d"
		picture = RELIGION_eventPicture

		trigger = {
			has_ruler_modifier = favored_RC_corin_t_a
			NOT = { has_ruler_modifier = RC_withdrawn_meditation }
			NOT = { has_ruler_modifier = RC_emulant_corin_1 }
		}

		is_triggered_only = yes

		option = {
			name = "favored_RC.38.a"
			add_ruler_modifier = {
				name = RC_emulant_corin_1
				duration = -1
			}
		}
	}

	# aspect 2
	country_event = {
		id = favored_RC.39
		title = "favored_RC.39.t"
		desc = "favored_RC.39.d"
		picture = RELIGION_eventPicture

		trigger = {
			has_ruler_modifier = favored_RC_corin_t_b
			NOT = { has_ruler_modifier = RC_withdrawn_meditation }
			NOT = { has_ruler_modifier = RC_emulant_corin_2 }
		}

		is_triggered_only = yes

		option = {
			name = "favored_RC.39.a"
			add_ruler_modifier = {
				name = RC_emulant_corin_2
				duration = -1
			}
		}
	}

##################################################
# Begga Goodfingers
##################################################

# Favored of the Gods - begga
country_event = {
	id = favored_RC.40
	title = "favored_RC.40.t"
	desc = "favored_RC.40.d"
	picture = RELIGION_eventPicture

	trigger = {
		has_personal_deity = begga
		OR = {
			ruler_has_personality = kind_hearted_personality
			ruler_has_personality = benevolent_personality
		}
		has_regency = no
		NOT = { has_ruler_modifier = RC_withdrawn_meditation }
		NOT = { has_ruler_modifier = RC_emulant_begga_1 }
		NOT = { has_ruler_modifier = RC_emulant_begga_2 }
		NOT = { has_ruler_flag = RC_emulant_rejected_begga}
	}

	is_triggered_only = yes

	# Emulate aspect 1
	option = {
		name = "favored_RC.40.a"
		add_ruler_modifier = {
			name = favored_RC_begga_t_a
			hidden = yes
			duration = -1
		}
		add_ruler_modifier = {
			name = RC_withdrawn_meditation
			duration = 1825
		}
		hidden_effect = {
			country_event = {
				id = favored_RC.41
				days = 1826
			}
		}
	}

	# Emulate aspect 2
	option = {
		name = "favored_RC.40.b"
		add_ruler_modifier = {
			name = favored_RC_begga_t_b
			hidden = yes
			duration = -1
		}
		add_ruler_modifier = {
			name = RC_withdrawn_meditation
			duration = 1825
		}
		hidden_effect = {
			country_event = {
				id = favored_RC.42
				days = 1826
			}
		}
	}

	# Eschew emulation
	option = {
		name = "favored_RC.40.c"
		add_prestige = 2
		set_ruler_flag = RC_emulant_rejected_begga
	}
}

# aspect 1
country_event = {
	id = favored_RC.41
	title = "favored_RC.41.t"
	desc = "favored_RC.41.d"
	picture = RELIGION_eventPicture

	trigger = {
		has_ruler_modifier = favored_RC_begga_t_a
		NOT = { has_ruler_modifier = RC_withdrawn_meditation }
		NOT = { has_ruler_modifier = RC_emulant_begga_1 }
	}

	is_triggered_only = yes

	option = {
		name = "favored_RC.41.a"
		add_ruler_modifier = {
			name = RC_emulant_begga_1
			duration = -1
		}
	}
}

# aspect 2
country_event = {
	id = favored_RC.42
	title = "favored_RC.42.t"
	desc = "favored_RC.42.d"
	picture = RELIGION_eventPicture

	trigger = {
		has_ruler_modifier = favored_RC_begga_t_b
		NOT = { has_ruler_modifier = RC_withdrawn_meditation }
		NOT = { has_ruler_modifier = RC_emulant_begga_2 }
	}

	is_triggered_only = yes

	option = {
		name = "favored_RC.42.a"
		add_ruler_modifier = {
			name = RC_emulant_begga_2
			duration = -1
		}
	}
}
